RowID	Sample	SampleName	fileName	salinity	daylength	time	Reference
1	1	T1_LD_FW1	T1_LD_FW1.count	FW	LD	T1	FW LD
2	2	T1_LD_FW2	T1_LD_FW2.count	FW	LD	T1	FW LD
3	3	T1_LD_FW3	T1_LD_FW3.count	FW	LD	T1	FW LD
4	4	T1_LD_FW4	T1_LD_FW4.count	FW	LD	T1	FW LD
5	5	T1_LD_FW5	T1_LD_FW5.count	FW	LD	T1	FW LD
6	6	T1_LD_FW6	T1_LD_FW6.count	FW	LD	T1	FW LD
7	7	T1_LD_SW1	T1_LD_SW1.count	SW	LD	T1	SW LD
8	8	T1_LD_SW2	T1_LD_SW2.count	SW	LD	T1	SW LD
9	9	T1_LD_SW3	T1_LD_SW3.count	SW	LD	T1	SW LD
10	10	T1_LD_SW4	T1_LD_SW4.count	SW	LD	T1	SW LD
11	11	T1_LD_SW5	T1_LD_SW5.count	SW	LD	T1	SW LD
12	12	T1_LD_SW6	T1_LD_SW6.count	SW	LD	T1	SW LD
13	13	T2_SP_SW1	T2_SP_SW1.count	SW	SD	T2	SW SD
14	14	T2_SP_SW2	T2_SP_SW2.count	SW	SD	T2	SW SD
15	15	T2_SP_SW3	T2_SP_SW3.count	SW	SD	T2	SW SD
16	16	T2_SP_SW4	T2_SP_SW4.count	SW	SD	T2	SW SD
17	17	T2_SP_SW5	T2_SP_SW5.count	SW	SD	T2	SW SD
18	18	T2_SP_SW6	T2_SP_SW6.count	SW	SD	T2	SW SD
19	19	T2_LD_SW1	T2_LD_SW1.count	SW	LD	T2	SW LD
20	20	T2_LD_SW2	T2_LD_SW2.count	SW	LD	T2	SW LD
21	21	T2_LD_SW3	T2_LD_SW3.count	SW	LD	T2	SW LD
22	22	T2_LD_SW4	T2_LD_SW4.count	SW	LD	T2	SW LD
23	23	T2_LD_SW5	T2_LD_SW5.count	SW	LD	T2	SW LD
24	24	T2_LD_SW6	T2_LD_SW6.count	SW	LD	T2	SW LD
25	25	T2_SP_FW1	T2_SP_FW1.count	FW	SD	T2	FW SD
26	26	T2_SP_FW2	T2_SP_FW2.count	FW	SD	T2	FW SD
27	27	T2_SP_FW3	T2_SP_FW3.count	FW	SD	T2	FW SD
28	28	T2_SP_FW4	T2_SP_FW4.count	FW	SD	T2	FW SD
29	29	T2_SP_FW5	T2_SP_FW5.count	FW	SD	T2	FW SD
30	30	T2_SP_FW6	T2_SP_FW6.count	FW	SD	T2	FW SD
31	31	T2_LD_FW1	T2_LD_FW1.count	FW	LD	T2	FW LD
32	32	T2_LD_FW2	T2_LD_FW2.count	FW	LD	T2	FW LD
33	33	T2_LD_FW3	T2_LD_FW3.count	FW	LD	T2	FW LD
34	34	T2_LD_FW4	T2_LD_FW4.count	FW	LD	T2	FW LD
35	35	T2_LD_FW5	T2_LD_FW5.count	FW	LD	T2	FW LD
36	36	T2_LD_FW6	T2_LD_FW6.count	FW	LD	T2	FW LD
37	37	T3_SP_SW1	T3_SP_SW1.count	SW	SD	T3	SW SD
38	38	T3_SP_SW2	T3_SP_SW2.count	SW	SD	T3	SW SD
39	39	T3_SP_SW3	T3_SP_SW3.count	SW	SD	T3	SW SD
40	40	T3_SP_SW4	T3_SP_SW4.count	SW	SD	T3	SW SD
41	41	T3_SP_SW5	T3_SP_SW5.count	SW	SD	T3	SW SD
42	42	T3_SP_SW6	T3_SP_SW6.count	SW	SD	T3	SW SD
43	43	T3_LD_SW1	T3_LD_SW1.count	SW	LD	T3	SW LD
44	44	T3_LD_SW2	T3_LD_SW2.count	SW	LD	T3	SW LD
45	45	T3_LD_SW3	T3_LD_SW3.count	SW	LD	T3	SW LD
46	46	T3_LD_SW4	T3_LD_SW4.count	SW	LD	T3	SW LD
47	47	T3_LD_SW5	T3_LD_SW5.count	SW	LD	T3	SW LD
48	48	T3_LD_SW6	T3_LD_SW6.count	SW	LD	T3	SW LD
49	49	T3_SP_FW1	T3_SP_FW1.count	FW	SD	T3	FW SD
50	50	T3_SP_FW2	T3_SP_FW2.count	FW	SD	T3	FW SD
51	51	T3_SP_FW3	T3_SP_FW3.count	FW	SD	T3	FW SD
52	52	T3_SP_FW4	T3_SP_FW4.count	FW	SD	T3	FW SD
53	53	T3_SP_FW5	T3_SP_FW5.count	FW	SD	T3	FW SD
54	54	T3_SP_FW6	T3_SP_FW6.count	FW	SD	T3	FW SD
55	55	T3_LD_FW1	T3_LD_FW1.count	FW	LD	T3	FW LD
56	56	T3_LD_FW2	T3_LD_FW2.count	FW	LD	T3	FW LD
57	57	T3_LD_FW3	T3_LD_FW3.count	FW	LD	T3	FW LD
58	58	T3_LD_FW4	T3_LD_FW4.count	FW	LD	T3	FW LD
59	59	T3_LD_FW5	T3_LD_FW5.count	FW	LD	T3	FW LD
60	60	T3_LD_FW6	T3_LD_FW6.count	FW	LD	T3	FW LD
61	61	T4_SP_FW1	T4_SP_FW1.count	FW	SP	T4	LD8:16 FW
62	62	T4_SP_FW2	T4_SP_FW2.count	FW	SP	T4	LD8:16 FW
63	63	T4_SP_FW3	T4_SP_FW3.count	FW	SP	T4	LD8:16 FW
64	64	T4_SP_FW4	T4_SP_FW4.count	FW	SP	T4	LD8:16 FW
65	65	T4_SP_FW5	T4_SP_FW5.count	FW	SP	T4	LD8:16 FW
66	66	T4_SP_FW6	T4_SP_FW6.count	FW	SP	T4	LD8:16 FW
67	67	T4_SP_SW1	T4_SP_SW1.count	SW	SP	T4	LD8:16 SW
68	68	T4_SP_SW2	T4_SP_SW2.count	SW	SP	T4	LD8:16 SW
69	69	T4_SP_SW3	T4_SP_SW3.count	SW	SP	T4	LD8:16 SW
70	70	T4_SP_SW4	T4_SP_SW4.count	SW	SP	T4	LD8:16 SW
71	71	T4_SP_SW5	T4_SP_SW5.count	SW	SP	T4	LD8:16 SW
72	72	T4_SP_SW6	T4_SP_SW6.count	SW	SP	T4	LD8:16 SW
73	73	T4_LD_SW1	T4_LD_SW1.count	SW	LD	T4	LL SW
74	74	T4_LD_SW2	T4_LD_SW2.count	SW	LD	T4	LL SW
75	75	T4_LD_SW3	T4_LD_SW3.count	SW	LD	T4	LL SW
76	76	T4_LD_SW4	T4_LD_SW4.count	SW	LD	T4	LL SW
77	77	T4_LD_SW5	T4_LD_SW5.count	SW	LD	T4	LL SW
78	78	T4_LD_SW6	T4_LD_SW6.count	SW	LD	T4	LL SW
79	79	T4_SPLD_SW1	T4_SPLD_SW1.count	SW	SPLD	T4	LD8:16 _ LL SW
80	80	T4_SPLD_SW2	T4_SPLD_SW2.count	SW	SPLD	T4	LD8:16 _ LL SW
81	81	T4_SPLD_SW3	T4_SPLD_SW3.count	SW	SPLD	T4	LD8:16 _ LL SW
82	82	T4_SPLD_SW4	T4_SPLD_SW4.count	SW	SPLD	T4	LD8:16 _ LL SW
83	83	T4_SPLD_SW5	T4_SPLD_SW5.count	SW	SPLD	T4	LD8:16 _ LL SW
84	84	T4_SPLD_SW6	T4_SPLD_SW6.count	SW	SPLD	T4	LD8:16 _ LL SW
85	85	T4_LD_FW1	T4_LD_FW1.count	FW	LD	T4	LL FW
86	86	T4_LD_FW2	T4_LD_FW2.count	FW	LD	T4	LL FW
87	87	T4_LD_FW3	T4_LD_FW3.count	FW	LD	T4	LL FW
88	88	T4_LD_FW4	T4_LD_FW4.count	FW	LD	T4	LL FW
89	89	T4_LD_FW5	T4_LD_FW5.count	FW	LD	T4	LL FW
90	90	T4_LD_FW6	T4_LD_FW6.count	FW	LD	T4	LL FW
91	91	T4_SPLD_FW1	T4_SPLD_FW1.count	FW	SPLD	T4	LD8:16 _ LL FW
92	92	T4_SPLD_FW2	T4_SPLD_FW2.count	FW	SPLD	T4	LD8:16 _ LL FW
93	93	T4_SPLD_FW3	T4_SPLD_FW3.count	FW	SPLD	T4	LD8:16 _ LL FW
94	94	T4_SPLD_FW4	T4_SPLD_FW4.count	FW	SPLD	T4	LD8:16 _ LL FW
95	95	T4_SPLD_FW5	T4_SPLD_FW5.count	FW	SPLD	T4	LD8:16 _ LL FW
96	97	T5_SP_FW1	T5_SP_FW1.count	FW	SP	T5	LD8:16 FW
97	98	T5_SP_FW2	T5_SP_FW2.count	FW	SP	T5	LD8:16 FW
98	99	T5_SP_FW3	T5_SP_FW3.count	FW	SP	T5	LD8:16 FW
99	100	T5_SP_FW4	T5_SP_FW4.count	FW	SP	T5	LD8:16 FW
100	101	T5_SP_FW5	T5_SP_FW5.count	FW	SP	T5	LD8:16 FW
101	102	T5_SP_FW6	T5_SP_FW6.count	FW	SP	T5	LD8:16 FW
102	103	T5_LD_SW1	T5_LD_SW1.count	SW	LD	T5	LL SW
103	104	T5_LD_SW2	T5_LD_SW2.count	SW	LD	T5	LL SW
104	105	T5_LD_SW3	T5_LD_SW3.count	SW	LD	T5	LL SW
105	106	T5_LD_SW4	T5_LD_SW4.count	SW	LD	T5	LL SW
106	107	T5_LD_SW5	T5_LD_SW5.count	SW	LD	T5	LL SW
107	108	T5_LD_SW6	T5_LD_SW6.count	SW	LD	T5	LL SW
108	109	T5_LD_FW1	T5_LD_FW1.count	FW	LD	T5	LL FW
109	110	T5_LD_FW2	T5_LD_FW2.count	FW	LD	T5	LL FW
110	111	T5_LD_FW3	T5_LD_FW3.count	FW	LD	T5	LL FW
111	112	T5_LD_FW4	T5_LD_FW4.count	FW	LD	T5	LL FW
112	113	T5_LD_FW5	T5_LD_FW5.count	FW	LD	T5	LL FW
113	114	T5_LD_FW6	T5_LD_FW6.count	FW	LD	T5	LL FW
114	115	T5_SPLD_SW1	T5_SPLD_SW1.count	SW	SPLD	T5	LD8:16 _ LL SW
115	116	T5_SPLD_SW2	T5_SPLD_SW2.count	SW	SPLD	T5	LD8:16 _ LL SW
116	117	T5_SPLD_SW3	T5_SPLD_SW3.count	SW	SPLD	T5	LD8:16 _ LL SW
117	118	T5_SPLD_SW4	T5_SPLD_SW4.count	SW	SPLD	T5	LD8:16 _ LL SW
118	119	T5_SPLD_SW5	T5_SPLD_SW5.count	SW	SPLD	T5	LD8:16 _ LL SW
119	120	T5_SPLD_SW6	T5_SPLD_SW6.count	SW	SPLD	T5	LD8:16 _ LL SW
120	121	T5_SP_SW1	T5_SP_SW1.count	SW	SP	T5	LD8:16 SW
121	122	T5_SP_SW2	T5_SP_SW2.count	SW	SP	T5	LD8:16 SW
122	123	T5_SP_SW3	T5_SP_SW3.count	SW	SP	T5	LD8:16 SW
123	124	T5_SP_SW4	T5_SP_SW4.count	SW	SP	T5	LD8:16 SW
124	125	T5_SP_SW5	T5_SP_SW5.count	SW	SP	T5	LD8:16 SW
125	126	T5_SP_SW6	T5_SP_SW6.count	SW	SP	T5	LD8:16 SW
126	127	T5_SPLD_FW1	T5_SPLD_FW1.count	FW	SPLD	T5	LD8:16 _ LL FW
127	128	T5_SPLD_FW2	T5_SPLD_FW2.count	FW	SPLD	T5	LD8:16 _ LL FW
128	129	T5_SPLD_FW3	T5_SPLD_FW3.count	FW	SPLD	T5	LD8:16 _ LL FW
129	130	T5_SPLD_FW4	T5_SPLD_FW4.count	FW	SPLD	T5	LD8:16 _ LL FW
130	131	T5_SPLD_FW5	T5_SPLD_FW5.count	FW	SPLD	T5	LD8:16 _ LL FW
131	132	T5_SPLD_FW6	T5_SPLD_FW6.count	FW	SPLD	T5	LD8:16 _ LL FW
132	133	T6_LD_FW1	T6_LD_FW1.count	FW	LD	T6	LL FW
133	134	T6_LD_FW2	T6_LD_FW2.count	FW	LD	T6	LL FW
134	135	T6_LD_FW3	T6_LD_FW3.count	FW	LD	T6	LL FW
135	136	T6_LD_FW4	T6_LD_FW4.count	FW	LD	T6	LL FW
136	137	T6_LD_FW5	T6_LD_FW5.count	FW	LD	T6	LL FW
137	138	T6_LD_FW6	T6_LD_FW6.count	FW	LD	T6	LL FW
138	139	T6_SPLD_FW1	T6_SPLD_FW1.count	FW	SPLD	T6	LD8:16 LL FW
139	140	T6_SPLD_FW2	T6_SPLD_FW2.count	FW	SPLD	T6	LD8:16 LL FW
140	141	T6_SPLD_FW3	T6_SPLD_FW3.count	FW	SPLD	T6	LD8:16 LL FW
141	142	T6_SPLD_FW4	T6_SPLD_FW4.count	FW	SPLD	T6	LD8:16 LL FW
142	143	T6_SPLD_FW5	T6_SPLD_FW5.count	FW	SPLD	T6	LD8:16 LL FW
143	144	T6_SPLD_FW6	T6_SPLD_FW6.count	FW	SPLD	T6	LD8:16 LL FW
144	145	T6_LD_SW1	T6_LD_SW1.count	SW	LD	T6	LL SW
145	146	T6_LD_SW2	T6_LD_SW2.count	SW	LD	T6	LL SW
146	147	T6_LD_SW3	T6_LD_SW3.count	SW	LD	T6	LL SW
147	148	T6_LD_SW4	T6_LD_SW4.count	SW	LD	T6	LL SW
148	149	T6_LD_SW5	T6_LD_SW5.count	SW	LD	T6	LL SW
149	150	T6_LD_SW6	T6_LD_SW6.count	SW	LD	T6	LL SW
150	151	T6_SPLD_SW1	T6_SPLD_SW1.count	SW	SPLD	T6	LD8:16 LL SW
151	152	T6_SPLD_SW2	T6_SPLD_SW2.count	SW	SPLD	T6	LD8:16 LL SW
152	153	T6_SPLD_SW3	T6_SPLD_SW3.count	SW	SPLD	T6	LD8:16 LL SW
153	154	T6_SPLD_SW4	T6_SPLD_SW4.count	SW	SPLD	T6	LD8:16 LL SW
154	155	T6_SPLD_SW5	T6_SPLD_SW5.count	SW	SPLD	T6	LD8:16 LL SW
155	156	T6_SPLD_SW6	T6_SPLD_SW6.count	SW	SPLD	T6	LD8:16 LL SW
156	157	T6_SP_SW1	T6_SP_SW1.count	SW	SP	T6	LD8:16 SW
157	158	T6_SP_SW2	T6_SP_SW2.count	SW	SP	T6	LD8:16 SW
158	159	T6_SP_SW3	T6_SP_SW3.count	SW	SP	T6	LD8:16 SW
159	160	T6_SP_SW4	T6_SP_SW4.count	SW	SP	T6	LD8:16 SW
160	161	T6_SP_SW5	T6_SP_SW5.count	SW	SP	T6	LD8:16 SW
161	162	T6_SP_SW6	T6_SP_SW6.count	SW	SP	T6	LD8:16 SW
162	163	T6_SP_FW1	T6_SP_FW1.count	FW	SP	T6	LD8:16 FW
163	164	T6_SP_FW2	T6_SP_FW2.count	FW	SP	T6	LD8:16 FW
164	165	T6_SP_FW3	T6_SP_FW3.count	FW	SP	T6	LD8:16 FW
165	166	T6_SP_FW4	T6_SP_FW4.count	FW	SP	T6	LD8:16 FW
166	167	T6_SP_FW5	T6_SP_FW5.count	FW	SP	T6	LD8:16 FW
167	168	T6_SP_FW6	T6_SP_FW6.count	FW	SP	T6	LD8:16 FW
