Sample Name,Directory,subdir,RawDataFile1,RawDataFile2,RawDataFile3,RawDataFile4,RawDataFile5,RawDataFile6,RawDataFile7,RawDataFile8
TC_D0-1,/mnt/SeqData1/salmon/Genosysfat/161208_K00253.B.Project_Sandve-RNAlibs6-2016-09-13,Sample_TC-D0-1,HGLMWBBXX_TC-D0-1_ATTACTCG-TATAGCCT_L001_R1_001.fastq.gz,HGLMWBBXX_TC-D0-1_ATTACTCG-TATAGCCT_L002_R1_001.fastq.gz,HGLMWBBXX_TC-D0-1_ATTACTCG-TATAGCCT_L003_R1_001.fastq.gz,HGLMWBBXX_TC-D0-1_ATTACTCG-TATAGCCT_L004_R1_001.fastq.gz,HGLMWBBXX_TC-D0-1_ATTACTCG-TATAGCCT_L005_R1_001.fastq.gz,HGLMWBBXX_TC-D0-1_ATTACTCG-TATAGCCT_L006_R1_001.fastq.gz,HGLMWBBXX_TC-D0-1_ATTACTCG-TATAGCCT_L007_R1_001.fastq.gz,HGLMWBBXX_TC-D0-1_ATTACTCG-TATAGCCT_L008_R1_001.fastq.gz
TC_D1-1,/mnt/SeqData1/salmon/Genosysfat/161208_K00253.B.Project_Sandve-RNAlibs6-2016-09-13,Sample_TC-D1-1,HGLMWBBXX_TC-D1-1_ATTACTCG-ATAGAGGC_L001_R1_001.fastq.gz,HGLMWBBXX_TC-D1-1_ATTACTCG-ATAGAGGC_L002_R1_001.fastq.gz,HGLMWBBXX_TC-D1-1_ATTACTCG-ATAGAGGC_L003_R1_001.fastq.gz,HGLMWBBXX_TC-D1-1_ATTACTCG-ATAGAGGC_L004_R1_001.fastq.gz,HGLMWBBXX_TC-D1-1_ATTACTCG-ATAGAGGC_L005_R1_001.fastq.gz,HGLMWBBXX_TC-D1-1_ATTACTCG-ATAGAGGC_L006_R1_001.fastq.gz,HGLMWBBXX_TC-D1-1_ATTACTCG-ATAGAGGC_L007_R1_001.fastq.gz,HGLMWBBXX_TC-D1-1_ATTACTCG-ATAGAGGC_L008_R1_001.fastq.gz
TC_D1-2,/mnt/SeqData1/salmon/Genosysfat/161208_K00253.B.Project_Sandve-RNAlibs6-2016-09-13,Sample_TC-D1-2,HGLMWBBXX_TC-D1-2_ATTACTCG-CCTATCCT_L001_R1_001.fastq.gz,HGLMWBBXX_TC-D1-2_ATTACTCG-CCTATCCT_L002_R1_001.fastq.gz,HGLMWBBXX_TC-D1-2_ATTACTCG-CCTATCCT_L003_R1_001.fastq.gz,HGLMWBBXX_TC-D1-2_ATTACTCG-CCTATCCT_L004_R1_001.fastq.gz,HGLMWBBXX_TC-D1-2_ATTACTCG-CCTATCCT_L005_R1_001.fastq.gz,HGLMWBBXX_TC-D1-2_ATTACTCG-CCTATCCT_L006_R1_001.fastq.gz,HGLMWBBXX_TC-D1-2_ATTACTCG-CCTATCCT_L007_R1_001.fastq.gz,HGLMWBBXX_TC-D1-2_ATTACTCG-CCTATCCT_L008_R1_001.fastq.gz
TC_D1-3,/mnt/SeqData1/salmon/Genosysfat/161208_K00253.B.Project_Sandve-RNAlibs6-2016-09-13,Sample_TC-D1-3,HGLMWBBXX_TC-D1-3_ATTACTCG-GGCTCTGA_L001_R1_001.fastq.gz,HGLMWBBXX_TC-D1-3_ATTACTCG-GGCTCTGA_L002_R1_001.fastq.gz,HGLMWBBXX_TC-D1-3_ATTACTCG-GGCTCTGA_L003_R1_001.fastq.gz,HGLMWBBXX_TC-D1-3_ATTACTCG-GGCTCTGA_L004_R1_001.fastq.gz,HGLMWBBXX_TC-D1-3_ATTACTCG-GGCTCTGA_L005_R1_001.fastq.gz,HGLMWBBXX_TC-D1-3_ATTACTCG-GGCTCTGA_L006_R1_001.fastq.gz,HGLMWBBXX_TC-D1-3_ATTACTCG-GGCTCTGA_L007_R1_001.fastq.gz,HGLMWBBXX_TC-D1-3_ATTACTCG-GGCTCTGA_L008_R1_001.fastq.gz
TC_D3-1,/mnt/SeqData1/salmon/Genosysfat/161208_K00253.B.Project_Sandve-RNAlibs6-2016-09-13,Sample_TC-D3-1,HGLMWBBXX_TC-D3-1_ATTACTCG-AGGCGAAG_L001_R1_001.fastq.gz,HGLMWBBXX_TC-D3-1_ATTACTCG-AGGCGAAG_L002_R1_001.fastq.gz,HGLMWBBXX_TC-D3-1_ATTACTCG-AGGCGAAG_L003_R1_001.fastq.gz,HGLMWBBXX_TC-D3-1_ATTACTCG-AGGCGAAG_L004_R1_001.fastq.gz,HGLMWBBXX_TC-D3-1_ATTACTCG-AGGCGAAG_L005_R1_001.fastq.gz,HGLMWBBXX_TC-D3-1_ATTACTCG-AGGCGAAG_L006_R1_001.fastq.gz,HGLMWBBXX_TC-D3-1_ATTACTCG-AGGCGAAG_L007_R1_001.fastq.gz,HGLMWBBXX_TC-D3-1_ATTACTCG-AGGCGAAG_L008_R1_001.fastq.gz
TC_D3-2,/mnt/SeqData1/salmon/Genosysfat/161208_K00253.B.Project_Sandve-RNAlibs6-2016-09-13,Sample_TC-D3-2,HGLMWBBXX_TC-D3-2_ATTACTCG-TAATCTTA_L001_R1_001.fastq.gz,HGLMWBBXX_TC-D3-2_ATTACTCG-TAATCTTA_L002_R1_001.fastq.gz,HGLMWBBXX_TC-D3-2_ATTACTCG-TAATCTTA_L003_R1_001.fastq.gz,HGLMWBBXX_TC-D3-2_ATTACTCG-TAATCTTA_L004_R1_001.fastq.gz,HGLMWBBXX_TC-D3-2_ATTACTCG-TAATCTTA_L005_R1_001.fastq.gz,HGLMWBBXX_TC-D3-2_ATTACTCG-TAATCTTA_L006_R1_001.fastq.gz,HGLMWBBXX_TC-D3-2_ATTACTCG-TAATCTTA_L007_R1_001.fastq.gz,HGLMWBBXX_TC-D3-2_ATTACTCG-TAATCTTA_L008_R1_001.fastq.gz
TC_D3-3,/mnt/SeqData1/salmon/Genosysfat/161208_K00253.B.Project_Sandve-RNAlibs6-2016-09-13,Sample_TC-D3-3,HGLMWBBXX_TC-D3-3_ATTACTCG-CAGGACGT_L001_R1_001.fastq.gz,HGLMWBBXX_TC-D3-3_ATTACTCG-CAGGACGT_L002_R1_001.fastq.gz,HGLMWBBXX_TC-D3-3_ATTACTCG-CAGGACGT_L003_R1_001.fastq.gz,HGLMWBBXX_TC-D3-3_ATTACTCG-CAGGACGT_L004_R1_001.fastq.gz,HGLMWBBXX_TC-D3-3_ATTACTCG-CAGGACGT_L005_R1_001.fastq.gz,HGLMWBBXX_TC-D3-3_ATTACTCG-CAGGACGT_L006_R1_001.fastq.gz,HGLMWBBXX_TC-D3-3_ATTACTCG-CAGGACGT_L007_R1_001.fastq.gz,HGLMWBBXX_TC-D3-3_ATTACTCG-CAGGACGT_L008_R1_001.fastq.gz
TC_D4_ALA-1,/mnt/SeqData1/salmon/Genosysfat/161208_K00253.B.Project_Sandve-RNAlibs6-2016-09-13,Sample_TC-D4-ALA-1,HGLMWBBXX_TC-D4-ALA-1_ATTACTCG-GTACTGAC_L001_R1_001.fastq.gz,HGLMWBBXX_TC-D4-ALA-1_ATTACTCG-GTACTGAC_L002_R1_001.fastq.gz,HGLMWBBXX_TC-D4-ALA-1_ATTACTCG-GTACTGAC_L003_R1_001.fastq.gz,HGLMWBBXX_TC-D4-ALA-1_ATTACTCG-GTACTGAC_L004_R1_001.fastq.gz,HGLMWBBXX_TC-D4-ALA-1_ATTACTCG-GTACTGAC_L005_R1_001.fastq.gz,HGLMWBBXX_TC-D4-ALA-1_ATTACTCG-GTACTGAC_L006_R1_001.fastq.gz,HGLMWBBXX_TC-D4-ALA-1_ATTACTCG-GTACTGAC_L007_R1_001.fastq.gz,HGLMWBBXX_TC-D4-ALA-1_ATTACTCG-GTACTGAC_L008_R1_001.fastq.gz
TC_D4_ALA-2,/mnt/SeqData1/salmon/Genosysfat/161208_K00253.B.Project_Sandve-RNAlibs6-2016-09-13,Sample_TC-D4-ALA-2,HGLMWBBXX_TC-D4-ALA-2_TCCGGAGA-TATAGCCT_L001_R1_001.fastq.gz,HGLMWBBXX_TC-D4-ALA-2_TCCGGAGA-TATAGCCT_L002_R1_001.fastq.gz,HGLMWBBXX_TC-D4-ALA-2_TCCGGAGA-TATAGCCT_L003_R1_001.fastq.gz,HGLMWBBXX_TC-D4-ALA-2_TCCGGAGA-TATAGCCT_L004_R1_001.fastq.gz,HGLMWBBXX_TC-D4-ALA-2_TCCGGAGA-TATAGCCT_L005_R1_001.fastq.gz,HGLMWBBXX_TC-D4-ALA-2_TCCGGAGA-TATAGCCT_L006_R1_001.fastq.gz,HGLMWBBXX_TC-D4-ALA-2_TCCGGAGA-TATAGCCT_L007_R1_001.fastq.gz,HGLMWBBXX_TC-D4-ALA-2_TCCGGAGA-TATAGCCT_L008_R1_001.fastq.gz
TC_D4_ALA-3,/mnt/SeqData1/salmon/Genosysfat/161208_K00253.B.Project_Sandve-RNAlibs6-2016-09-13,Sample_TC-D4-ALA-3,HGLMWBBXX_TC-D4-ALA-3_TCCGGAGA-ATAGAGGC_L001_R1_001.fastq.gz,HGLMWBBXX_TC-D4-ALA-3_TCCGGAGA-ATAGAGGC_L002_R1_001.fastq.gz,HGLMWBBXX_TC-D4-ALA-3_TCCGGAGA-ATAGAGGC_L003_R1_001.fastq.gz,HGLMWBBXX_TC-D4-ALA-3_TCCGGAGA-ATAGAGGC_L004_R1_001.fastq.gz,HGLMWBBXX_TC-D4-ALA-3_TCCGGAGA-ATAGAGGC_L005_R1_001.fastq.gz,HGLMWBBXX_TC-D4-ALA-3_TCCGGAGA-ATAGAGGC_L006_R1_001.fastq.gz,HGLMWBBXX_TC-D4-ALA-3_TCCGGAGA-ATAGAGGC_L007_R1_001.fastq.gz,HGLMWBBXX_TC-D4-ALA-3_TCCGGAGA-ATAGAGGC_L008_R1_001.fastq.gz
TC_D4_BCD-1,/mnt/SeqData1/salmon/Genosysfat/161208_K00253.B.Project_Sandve-RNAlibs6-2016-09-13,Sample_TC-D4-BCD-1,HGLMWBBXX_TC-D4-BCD-1_TCCGGAGA-CCTATCCT_L001_R1_001.fastq.gz,HGLMWBBXX_TC-D4-BCD-1_TCCGGAGA-CCTATCCT_L002_R1_001.fastq.gz,HGLMWBBXX_TC-D4-BCD-1_TCCGGAGA-CCTATCCT_L003_R1_001.fastq.gz,HGLMWBBXX_TC-D4-BCD-1_TCCGGAGA-CCTATCCT_L004_R1_001.fastq.gz,HGLMWBBXX_TC-D4-BCD-1_TCCGGAGA-CCTATCCT_L005_R1_001.fastq.gz,HGLMWBBXX_TC-D4-BCD-1_TCCGGAGA-CCTATCCT_L006_R1_001.fastq.gz,HGLMWBBXX_TC-D4-BCD-1_TCCGGAGA-CCTATCCT_L007_R1_001.fastq.gz,HGLMWBBXX_TC-D4-BCD-1_TCCGGAGA-CCTATCCT_L008_R1_001.fastq.gz
TC_D4_BCD-2,/mnt/SeqData1/salmon/Genosysfat/161208_K00253.B.Project_Sandve-RNAlibs6-2016-09-13,Sample_TC-D4-BCD-2,HGLMWBBXX_TC-D4-BCD-2_TCCGGAGA-GGCTCTGA_L001_R1_001.fastq.gz,HGLMWBBXX_TC-D4-BCD-2_TCCGGAGA-GGCTCTGA_L002_R1_001.fastq.gz,HGLMWBBXX_TC-D4-BCD-2_TCCGGAGA-GGCTCTGA_L003_R1_001.fastq.gz,HGLMWBBXX_TC-D4-BCD-2_TCCGGAGA-GGCTCTGA_L004_R1_001.fastq.gz,HGLMWBBXX_TC-D4-BCD-2_TCCGGAGA-GGCTCTGA_L005_R1_001.fastq.gz,HGLMWBBXX_TC-D4-BCD-2_TCCGGAGA-GGCTCTGA_L006_R1_001.fastq.gz,HGLMWBBXX_TC-D4-BCD-2_TCCGGAGA-GGCTCTGA_L007_R1_001.fastq.gz,HGLMWBBXX_TC-D4-BCD-2_TCCGGAGA-GGCTCTGA_L008_R1_001.fastq.gz
TC_D4_BCD-3,/mnt/SeqData1/salmon/Genosysfat/161208_K00253.B.Project_Sandve-RNAlibs6-2016-09-13,Sample_TC-D4-BCD-3,HGLMWBBXX_TC-D4-BCD-3_TCCGGAGA-AGGCGAAG_L001_R1_001.fastq.gz,HGLMWBBXX_TC-D4-BCD-3_TCCGGAGA-AGGCGAAG_L002_R1_001.fastq.gz,HGLMWBBXX_TC-D4-BCD-3_TCCGGAGA-AGGCGAAG_L003_R1_001.fastq.gz,HGLMWBBXX_TC-D4-BCD-3_TCCGGAGA-AGGCGAAG_L004_R1_001.fastq.gz,HGLMWBBXX_TC-D4-BCD-3_TCCGGAGA-AGGCGAAG_L005_R1_001.fastq.gz,HGLMWBBXX_TC-D4-BCD-3_TCCGGAGA-AGGCGAAG_L006_R1_001.fastq.gz,HGLMWBBXX_TC-D4-BCD-3_TCCGGAGA-AGGCGAAG_L007_R1_001.fastq.gz,HGLMWBBXX_TC-D4-BCD-3_TCCGGAGA-AGGCGAAG_L008_R1_001.fastq.gz
TC_D5_ALA-1,/mnt/SeqData1/salmon/Genosysfat/161208_K00253.B.Project_Sandve-RNAlibs6-2016-09-13,Sample_TC-D5-ALA-1,HGLMWBBXX_TC-D5-ALA-1_TCCGGAGA-TAATCTTA_L001_R1_001.fastq.gz,HGLMWBBXX_TC-D5-ALA-1_TCCGGAGA-TAATCTTA_L002_R1_001.fastq.gz,HGLMWBBXX_TC-D5-ALA-1_TCCGGAGA-TAATCTTA_L003_R1_001.fastq.gz,HGLMWBBXX_TC-D5-ALA-1_TCCGGAGA-TAATCTTA_L004_R1_001.fastq.gz,HGLMWBBXX_TC-D5-ALA-1_TCCGGAGA-TAATCTTA_L005_R1_001.fastq.gz,HGLMWBBXX_TC-D5-ALA-1_TCCGGAGA-TAATCTTA_L006_R1_001.fastq.gz,HGLMWBBXX_TC-D5-ALA-1_TCCGGAGA-TAATCTTA_L007_R1_001.fastq.gz,HGLMWBBXX_TC-D5-ALA-1_TCCGGAGA-TAATCTTA_L008_R1_001.fastq.gz
TC_D5_ALA-2,/mnt/SeqData1/salmon/Genosysfat/161208_K00253.B.Project_Sandve-RNAlibs6-2016-09-13,Sample_TC-D5-ALA-2,HGLMWBBXX_TC-D5-ALA-2_TCCGGAGA-CAGGACGT_L001_R1_001.fastq.gz,HGLMWBBXX_TC-D5-ALA-2_TCCGGAGA-CAGGACGT_L002_R1_001.fastq.gz,HGLMWBBXX_TC-D5-ALA-2_TCCGGAGA-CAGGACGT_L003_R1_001.fastq.gz,HGLMWBBXX_TC-D5-ALA-2_TCCGGAGA-CAGGACGT_L004_R1_001.fastq.gz,HGLMWBBXX_TC-D5-ALA-2_TCCGGAGA-CAGGACGT_L005_R1_001.fastq.gz,HGLMWBBXX_TC-D5-ALA-2_TCCGGAGA-CAGGACGT_L006_R1_001.fastq.gz,HGLMWBBXX_TC-D5-ALA-2_TCCGGAGA-CAGGACGT_L007_R1_001.fastq.gz,HGLMWBBXX_TC-D5-ALA-2_TCCGGAGA-CAGGACGT_L008_R1_001.fastq.gz
TC_D5_ALA-3,/mnt/SeqData1/salmon/Genosysfat/161208_K00253.B.Project_Sandve-RNAlibs6-2016-09-13,Sample_TC-D5-ALA-3,HGLMWBBXX_TC-D5-ALA-3_TCCGGAGA-GTACTGAC_L001_R1_001.fastq.gz,HGLMWBBXX_TC-D5-ALA-3_TCCGGAGA-GTACTGAC_L002_R1_001.fastq.gz,HGLMWBBXX_TC-D5-ALA-3_TCCGGAGA-GTACTGAC_L003_R1_001.fastq.gz,HGLMWBBXX_TC-D5-ALA-3_TCCGGAGA-GTACTGAC_L004_R1_001.fastq.gz,HGLMWBBXX_TC-D5-ALA-3_TCCGGAGA-GTACTGAC_L005_R1_001.fastq.gz,HGLMWBBXX_TC-D5-ALA-3_TCCGGAGA-GTACTGAC_L006_R1_001.fastq.gz,HGLMWBBXX_TC-D5-ALA-3_TCCGGAGA-GTACTGAC_L007_R1_001.fastq.gz,HGLMWBBXX_TC-D5-ALA-3_TCCGGAGA-GTACTGAC_L008_R1_001.fastq.gz
TC_D5_BCD-1,/mnt/SeqData1/salmon/Genosysfat/161208_K00253.B.Project_Sandve-RNAlibs6-2016-09-13,Sample_TC-D5-BCD-1,HGLMWBBXX_TC-D5-BCD-1_CGCTCATT-TATAGCCT_L001_R1_001.fastq.gz,HGLMWBBXX_TC-D5-BCD-1_CGCTCATT-TATAGCCT_L002_R1_001.fastq.gz,HGLMWBBXX_TC-D5-BCD-1_CGCTCATT-TATAGCCT_L003_R1_001.fastq.gz,HGLMWBBXX_TC-D5-BCD-1_CGCTCATT-TATAGCCT_L004_R1_001.fastq.gz,HGLMWBBXX_TC-D5-BCD-1_CGCTCATT-TATAGCCT_L005_R1_001.fastq.gz,HGLMWBBXX_TC-D5-BCD-1_CGCTCATT-TATAGCCT_L006_R1_001.fastq.gz,HGLMWBBXX_TC-D5-BCD-1_CGCTCATT-TATAGCCT_L007_R1_001.fastq.gz,HGLMWBBXX_TC-D5-BCD-1_CGCTCATT-TATAGCCT_L008_R1_001.fastq.gz
TC_D5_BCD-2,/mnt/SeqData1/salmon/Genosysfat/161208_K00253.B.Project_Sandve-RNAlibs6-2016-09-13,Sample_TC-D5-BCD-2,HGLMWBBXX_TC-D5-BCD-2_CGCTCATT-ATAGAGGC_L001_R1_001.fastq.gz,HGLMWBBXX_TC-D5-BCD-2_CGCTCATT-ATAGAGGC_L002_R1_001.fastq.gz,HGLMWBBXX_TC-D5-BCD-2_CGCTCATT-ATAGAGGC_L003_R1_001.fastq.gz,HGLMWBBXX_TC-D5-BCD-2_CGCTCATT-ATAGAGGC_L004_R1_001.fastq.gz,HGLMWBBXX_TC-D5-BCD-2_CGCTCATT-ATAGAGGC_L005_R1_001.fastq.gz,HGLMWBBXX_TC-D5-BCD-2_CGCTCATT-ATAGAGGC_L006_R1_001.fastq.gz,HGLMWBBXX_TC-D5-BCD-2_CGCTCATT-ATAGAGGC_L007_R1_001.fastq.gz,HGLMWBBXX_TC-D5-BCD-2_CGCTCATT-ATAGAGGC_L008_R1_001.fastq.gz
TC_D5_BCD-3,/mnt/SeqData1/salmon/Genosysfat/161208_K00253.B.Project_Sandve-RNAlibs6-2016-09-13,Sample_TC-D5-BCD-3,HGLMWBBXX_TC-D5-BCD-3_CGCTCATT-CCTATCCT_L001_R1_001.fastq.gz,HGLMWBBXX_TC-D5-BCD-3_CGCTCATT-CCTATCCT_L002_R1_001.fastq.gz,HGLMWBBXX_TC-D5-BCD-3_CGCTCATT-CCTATCCT_L003_R1_001.fastq.gz,HGLMWBBXX_TC-D5-BCD-3_CGCTCATT-CCTATCCT_L004_R1_001.fastq.gz,HGLMWBBXX_TC-D5-BCD-3_CGCTCATT-CCTATCCT_L005_R1_001.fastq.gz,HGLMWBBXX_TC-D5-BCD-3_CGCTCATT-CCTATCCT_L006_R1_001.fastq.gz,HGLMWBBXX_TC-D5-BCD-3_CGCTCATT-CCTATCCT_L007_R1_001.fastq.gz,HGLMWBBXX_TC-D5-BCD-3_CGCTCATT-CCTATCCT_L008_R1_001.fastq.gz
TC_D6_ALA-1,/mnt/SeqData1/salmon/Genosysfat/161208_K00253.B.Project_Sandve-RNAlibs6-2016-09-13,Sample_TC-D6-ALA-1,HGLMWBBXX_TC-D6-ALA-1_CGCTCATT-GGCTCTGA_L001_R1_001.fastq.gz,HGLMWBBXX_TC-D6-ALA-1_CGCTCATT-GGCTCTGA_L002_R1_001.fastq.gz,HGLMWBBXX_TC-D6-ALA-1_CGCTCATT-GGCTCTGA_L003_R1_001.fastq.gz,HGLMWBBXX_TC-D6-ALA-1_CGCTCATT-GGCTCTGA_L004_R1_001.fastq.gz,HGLMWBBXX_TC-D6-ALA-1_CGCTCATT-GGCTCTGA_L005_R1_001.fastq.gz,HGLMWBBXX_TC-D6-ALA-1_CGCTCATT-GGCTCTGA_L006_R1_001.fastq.gz,HGLMWBBXX_TC-D6-ALA-1_CGCTCATT-GGCTCTGA_L007_R1_001.fastq.gz,HGLMWBBXX_TC-D6-ALA-1_CGCTCATT-GGCTCTGA_L008_R1_001.fastq.gz
TC_D6_ALA-2,/mnt/SeqData1/salmon/Genosysfat/161208_K00253.B.Project_Sandve-RNAlibs6-2016-09-13,Sample_TC-D6-ALA-2,HGLMWBBXX_TC-D6-ALA-2_CGCTCATT-AGGCGAAG_L001_R1_001.fastq.gz,HGLMWBBXX_TC-D6-ALA-2_CGCTCATT-AGGCGAAG_L002_R1_001.fastq.gz,HGLMWBBXX_TC-D6-ALA-2_CGCTCATT-AGGCGAAG_L003_R1_001.fastq.gz,HGLMWBBXX_TC-D6-ALA-2_CGCTCATT-AGGCGAAG_L004_R1_001.fastq.gz,HGLMWBBXX_TC-D6-ALA-2_CGCTCATT-AGGCGAAG_L005_R1_001.fastq.gz,HGLMWBBXX_TC-D6-ALA-2_CGCTCATT-AGGCGAAG_L006_R1_001.fastq.gz,HGLMWBBXX_TC-D6-ALA-2_CGCTCATT-AGGCGAAG_L007_R1_001.fastq.gz,HGLMWBBXX_TC-D6-ALA-2_CGCTCATT-AGGCGAAG_L008_R1_001.fastq.gz
TC_D6_ALA-3,/mnt/SeqData1/salmon/Genosysfat/161208_K00253.B.Project_Sandve-RNAlibs6-2016-09-13,Sample_TC-D6-ALA-3,HGLMWBBXX_TC-D6-ALA-3_CGCTCATT-TAATCTTA_L001_R1_001.fastq.gz,HGLMWBBXX_TC-D6-ALA-3_CGCTCATT-TAATCTTA_L002_R1_001.fastq.gz,HGLMWBBXX_TC-D6-ALA-3_CGCTCATT-TAATCTTA_L003_R1_001.fastq.gz,HGLMWBBXX_TC-D6-ALA-3_CGCTCATT-TAATCTTA_L004_R1_001.fastq.gz,HGLMWBBXX_TC-D6-ALA-3_CGCTCATT-TAATCTTA_L005_R1_001.fastq.gz,HGLMWBBXX_TC-D6-ALA-3_CGCTCATT-TAATCTTA_L006_R1_001.fastq.gz,HGLMWBBXX_TC-D6-ALA-3_CGCTCATT-TAATCTTA_L007_R1_001.fastq.gz,HGLMWBBXX_TC-D6-ALA-3_CGCTCATT-TAATCTTA_L008_R1_001.fastq.gz
TC_D6_BCD-1,/mnt/SeqData1/salmon/Genosysfat/161208_K00253.B.Project_Sandve-RNAlibs6-2016-09-13,Sample_TC-D6-BCD-1,HGLMWBBXX_TC-D6-BCD-1_CGCTCATT-CAGGACGT_L001_R1_001.fastq.gz,HGLMWBBXX_TC-D6-BCD-1_CGCTCATT-CAGGACGT_L002_R1_001.fastq.gz,HGLMWBBXX_TC-D6-BCD-1_CGCTCATT-CAGGACGT_L003_R1_001.fastq.gz,HGLMWBBXX_TC-D6-BCD-1_CGCTCATT-CAGGACGT_L004_R1_001.fastq.gz,HGLMWBBXX_TC-D6-BCD-1_CGCTCATT-CAGGACGT_L005_R1_001.fastq.gz,HGLMWBBXX_TC-D6-BCD-1_CGCTCATT-CAGGACGT_L006_R1_001.fastq.gz,HGLMWBBXX_TC-D6-BCD-1_CGCTCATT-CAGGACGT_L007_R1_001.fastq.gz,HGLMWBBXX_TC-D6-BCD-1_CGCTCATT-CAGGACGT_L008_R1_001.fastq.gz
TC_D6_BCD-2,/mnt/SeqData1/salmon/Genosysfat/161208_K00253.B.Project_Sandve-RNAlibs6-2016-09-13,Sample_TC-D6-BCD-2,HGLMWBBXX_TC-D6-BCD-2_CGCTCATT-GTACTGAC_L001_R1_001.fastq.gz,HGLMWBBXX_TC-D6-BCD-2_CGCTCATT-GTACTGAC_L002_R1_001.fastq.gz,HGLMWBBXX_TC-D6-BCD-2_CGCTCATT-GTACTGAC_L003_R1_001.fastq.gz,HGLMWBBXX_TC-D6-BCD-2_CGCTCATT-GTACTGAC_L004_R1_001.fastq.gz,HGLMWBBXX_TC-D6-BCD-2_CGCTCATT-GTACTGAC_L005_R1_001.fastq.gz,HGLMWBBXX_TC-D6-BCD-2_CGCTCATT-GTACTGAC_L006_R1_001.fastq.gz,HGLMWBBXX_TC-D6-BCD-2_CGCTCATT-GTACTGAC_L007_R1_001.fastq.gz,HGLMWBBXX_TC-D6-BCD-2_CGCTCATT-GTACTGAC_L008_R1_001.fastq.gz
TC_D6_BCD-3,/mnt/SeqData1/salmon/Genosysfat/161208_K00253.B.Project_Sandve-RNAlibs6-2016-09-13,Sample_TC-D6-BCD-3,HGLMWBBXX_TC-D6-BCD-3_GAGATTCC-TATAGCCT_L001_R1_001.fastq.gz,HGLMWBBXX_TC-D6-BCD-3_GAGATTCC-TATAGCCT_L002_R1_001.fastq.gz,HGLMWBBXX_TC-D6-BCD-3_GAGATTCC-TATAGCCT_L003_R1_001.fastq.gz,HGLMWBBXX_TC-D6-BCD-3_GAGATTCC-TATAGCCT_L004_R1_001.fastq.gz,HGLMWBBXX_TC-D6-BCD-3_GAGATTCC-TATAGCCT_L005_R1_001.fastq.gz,HGLMWBBXX_TC-D6-BCD-3_GAGATTCC-TATAGCCT_L006_R1_001.fastq.gz,HGLMWBBXX_TC-D6-BCD-3_GAGATTCC-TATAGCCT_L007_R1_001.fastq.gz,HGLMWBBXX_TC-D6-BCD-3_GAGATTCC-TATAGCCT_L008_R1_001.fastq.gz
TC_D7_ALA-1,/mnt/SeqData1/salmon/Genosysfat/161208_K00253.B.Project_Sandve-RNAlibs6-2016-09-13,Sample_TC-D7-ALA-1,HGLMWBBXX_TC-D7-ALA-1_GAGATTCC-ATAGAGGC_L001_R1_001.fastq.gz,HGLMWBBXX_TC-D7-ALA-1_GAGATTCC-ATAGAGGC_L002_R1_001.fastq.gz,HGLMWBBXX_TC-D7-ALA-1_GAGATTCC-ATAGAGGC_L003_R1_001.fastq.gz,HGLMWBBXX_TC-D7-ALA-1_GAGATTCC-ATAGAGGC_L004_R1_001.fastq.gz,HGLMWBBXX_TC-D7-ALA-1_GAGATTCC-ATAGAGGC_L005_R1_001.fastq.gz,HGLMWBBXX_TC-D7-ALA-1_GAGATTCC-ATAGAGGC_L006_R1_001.fastq.gz,HGLMWBBXX_TC-D7-ALA-1_GAGATTCC-ATAGAGGC_L007_R1_001.fastq.gz,HGLMWBBXX_TC-D7-ALA-1_GAGATTCC-ATAGAGGC_L008_R1_001.fastq.gz
TC_D7_ALA-2,/mnt/SeqData1/salmon/Genosysfat/161208_K00253.B.Project_Sandve-RNAlibs6-2016-09-13,Sample_TC-D7-ALA-2,HGLMWBBXX_TC-D7-ALA-2_GAGATTCC-CCTATCCT_L001_R1_001.fastq.gz,HGLMWBBXX_TC-D7-ALA-2_GAGATTCC-CCTATCCT_L002_R1_001.fastq.gz,HGLMWBBXX_TC-D7-ALA-2_GAGATTCC-CCTATCCT_L003_R1_001.fastq.gz,HGLMWBBXX_TC-D7-ALA-2_GAGATTCC-CCTATCCT_L004_R1_001.fastq.gz,HGLMWBBXX_TC-D7-ALA-2_GAGATTCC-CCTATCCT_L005_R1_001.fastq.gz,HGLMWBBXX_TC-D7-ALA-2_GAGATTCC-CCTATCCT_L006_R1_001.fastq.gz,HGLMWBBXX_TC-D7-ALA-2_GAGATTCC-CCTATCCT_L007_R1_001.fastq.gz,HGLMWBBXX_TC-D7-ALA-2_GAGATTCC-CCTATCCT_L008_R1_001.fastq.gz
TC_D7_ALA-3,/mnt/SeqData1/salmon/Genosysfat/161208_K00253.B.Project_Sandve-RNAlibs6-2016-09-13,Sample_TC-D7-ALA-3,HGLMWBBXX_TC-D7-ALA-3_GAGATTCC-GGCTCTGA_L001_R1_001.fastq.gz,HGLMWBBXX_TC-D7-ALA-3_GAGATTCC-GGCTCTGA_L002_R1_001.fastq.gz,HGLMWBBXX_TC-D7-ALA-3_GAGATTCC-GGCTCTGA_L003_R1_001.fastq.gz,HGLMWBBXX_TC-D7-ALA-3_GAGATTCC-GGCTCTGA_L004_R1_001.fastq.gz,HGLMWBBXX_TC-D7-ALA-3_GAGATTCC-GGCTCTGA_L005_R1_001.fastq.gz,HGLMWBBXX_TC-D7-ALA-3_GAGATTCC-GGCTCTGA_L006_R1_001.fastq.gz,HGLMWBBXX_TC-D7-ALA-3_GAGATTCC-GGCTCTGA_L007_R1_001.fastq.gz,HGLMWBBXX_TC-D7-ALA-3_GAGATTCC-GGCTCTGA_L008_R1_001.fastq.gz
TC_D7_BCD-1,/mnt/SeqData1/salmon/Genosysfat/161208_K00253.B.Project_Sandve-RNAlibs6-2016-09-13,Sample_TC-D7-BCD-1,HGLMWBBXX_TC-D7-BCD-1_GAGATTCC-AGGCGAAG_L001_R1_001.fastq.gz,HGLMWBBXX_TC-D7-BCD-1_GAGATTCC-AGGCGAAG_L002_R1_001.fastq.gz,HGLMWBBXX_TC-D7-BCD-1_GAGATTCC-AGGCGAAG_L003_R1_001.fastq.gz,HGLMWBBXX_TC-D7-BCD-1_GAGATTCC-AGGCGAAG_L004_R1_001.fastq.gz,HGLMWBBXX_TC-D7-BCD-1_GAGATTCC-AGGCGAAG_L005_R1_001.fastq.gz,HGLMWBBXX_TC-D7-BCD-1_GAGATTCC-AGGCGAAG_L006_R1_001.fastq.gz,HGLMWBBXX_TC-D7-BCD-1_GAGATTCC-AGGCGAAG_L007_R1_001.fastq.gz,HGLMWBBXX_TC-D7-BCD-1_GAGATTCC-AGGCGAAG_L008_R1_001.fastq.gz
TC_D7_BCD-2,/mnt/SeqData1/salmon/Genosysfat/161208_K00253.B.Project_Sandve-RNAlibs6-2016-09-13,Sample_TC-D7-BCD-2,HGLMWBBXX_TC-D7-BCD-2_GAGATTCC-TAATCTTA_L001_R1_001.fastq.gz,HGLMWBBXX_TC-D7-BCD-2_GAGATTCC-TAATCTTA_L002_R1_001.fastq.gz,HGLMWBBXX_TC-D7-BCD-2_GAGATTCC-TAATCTTA_L003_R1_001.fastq.gz,HGLMWBBXX_TC-D7-BCD-2_GAGATTCC-TAATCTTA_L004_R1_001.fastq.gz,HGLMWBBXX_TC-D7-BCD-2_GAGATTCC-TAATCTTA_L005_R1_001.fastq.gz,HGLMWBBXX_TC-D7-BCD-2_GAGATTCC-TAATCTTA_L006_R1_001.fastq.gz,HGLMWBBXX_TC-D7-BCD-2_GAGATTCC-TAATCTTA_L007_R1_001.fastq.gz,HGLMWBBXX_TC-D7-BCD-2_GAGATTCC-TAATCTTA_L008_R1_001.fastq.gz
TC_D7_BCD-3,/mnt/SeqData1/salmon/Genosysfat/161208_K00253.B.Project_Sandve-RNAlibs6-2016-09-13,Sample_TC-D7-BCD-3,HGLMWBBXX_TC-D7-BCD-3_GAGATTCC-CAGGACGT_L001_R1_001.fastq.gz,HGLMWBBXX_TC-D7-BCD-3_GAGATTCC-CAGGACGT_L002_R1_001.fastq.gz,HGLMWBBXX_TC-D7-BCD-3_GAGATTCC-CAGGACGT_L003_R1_001.fastq.gz,HGLMWBBXX_TC-D7-BCD-3_GAGATTCC-CAGGACGT_L004_R1_001.fastq.gz,HGLMWBBXX_TC-D7-BCD-3_GAGATTCC-CAGGACGT_L005_R1_001.fastq.gz,HGLMWBBXX_TC-D7-BCD-3_GAGATTCC-CAGGACGT_L006_R1_001.fastq.gz,HGLMWBBXX_TC-D7-BCD-3_GAGATTCC-CAGGACGT_L007_R1_001.fastq.gz,HGLMWBBXX_TC-D7-BCD-3_GAGATTCC-CAGGACGT_L008_R1_001.fastq.gz
TC_D8_ALA-1,/mnt/SeqData1/salmon/Genosysfat/161208_K00253.B.Project_Sandve-RNAlibs6-2016-09-13,Sample_TC-D8-ALA-1,HGLMWBBXX_TC-D8-ALA-1_GAGATTCC-GTACTGAC_L001_R1_001.fastq.gz,HGLMWBBXX_TC-D8-ALA-1_GAGATTCC-GTACTGAC_L002_R1_001.fastq.gz,HGLMWBBXX_TC-D8-ALA-1_GAGATTCC-GTACTGAC_L003_R1_001.fastq.gz,HGLMWBBXX_TC-D8-ALA-1_GAGATTCC-GTACTGAC_L004_R1_001.fastq.gz,HGLMWBBXX_TC-D8-ALA-1_GAGATTCC-GTACTGAC_L005_R1_001.fastq.gz,HGLMWBBXX_TC-D8-ALA-1_GAGATTCC-GTACTGAC_L006_R1_001.fastq.gz,HGLMWBBXX_TC-D8-ALA-1_GAGATTCC-GTACTGAC_L007_R1_001.fastq.gz,HGLMWBBXX_TC-D8-ALA-1_GAGATTCC-GTACTGAC_L008_R1_001.fastq.gz
TC_D8_ALA-2,/mnt/SeqData1/salmon/Genosysfat/161208_K00253.B.Project_Sandve-RNAlibs6-2016-09-13,Sample_TC-D8-ALA-2,HGLMWBBXX_TC-D8-ALA-2_ATTCAGAA-TATAGCCT_L001_R1_001.fastq.gz,HGLMWBBXX_TC-D8-ALA-2_ATTCAGAA-TATAGCCT_L002_R1_001.fastq.gz,HGLMWBBXX_TC-D8-ALA-2_ATTCAGAA-TATAGCCT_L003_R1_001.fastq.gz,HGLMWBBXX_TC-D8-ALA-2_ATTCAGAA-TATAGCCT_L004_R1_001.fastq.gz,HGLMWBBXX_TC-D8-ALA-2_ATTCAGAA-TATAGCCT_L005_R1_001.fastq.gz,HGLMWBBXX_TC-D8-ALA-2_ATTCAGAA-TATAGCCT_L006_R1_001.fastq.gz,HGLMWBBXX_TC-D8-ALA-2_ATTCAGAA-TATAGCCT_L007_R1_001.fastq.gz,HGLMWBBXX_TC-D8-ALA-2_ATTCAGAA-TATAGCCT_L008_R1_001.fastq.gz
TC_D8_ALA-3,/mnt/SeqData1/salmon/Genosysfat/161208_K00253.B.Project_Sandve-RNAlibs6-2016-09-13,Sample_TC-D8-ALA-3,HGLMWBBXX_TC-D8-ALA-3_ATTCAGAA-ATAGAGGC_L001_R1_001.fastq.gz,HGLMWBBXX_TC-D8-ALA-3_ATTCAGAA-ATAGAGGC_L002_R1_001.fastq.gz,HGLMWBBXX_TC-D8-ALA-3_ATTCAGAA-ATAGAGGC_L003_R1_001.fastq.gz,HGLMWBBXX_TC-D8-ALA-3_ATTCAGAA-ATAGAGGC_L004_R1_001.fastq.gz,HGLMWBBXX_TC-D8-ALA-3_ATTCAGAA-ATAGAGGC_L005_R1_001.fastq.gz,HGLMWBBXX_TC-D8-ALA-3_ATTCAGAA-ATAGAGGC_L006_R1_001.fastq.gz,HGLMWBBXX_TC-D8-ALA-3_ATTCAGAA-ATAGAGGC_L007_R1_001.fastq.gz,HGLMWBBXX_TC-D8-ALA-3_ATTCAGAA-ATAGAGGC_L008_R1_001.fastq.gz
TC_D8_BCD-1,/mnt/SeqData1/salmon/Genosysfat/161208_K00253.B.Project_Sandve-RNAlibs6-2016-09-13,Sample_TC-D8-BCD-1,HGLMWBBXX_TC-D8-BCD-1_ATTCAGAA-CCTATCCT_L001_R1_001.fastq.gz,HGLMWBBXX_TC-D8-BCD-1_ATTCAGAA-CCTATCCT_L002_R1_001.fastq.gz,HGLMWBBXX_TC-D8-BCD-1_ATTCAGAA-CCTATCCT_L003_R1_001.fastq.gz,HGLMWBBXX_TC-D8-BCD-1_ATTCAGAA-CCTATCCT_L004_R1_001.fastq.gz,HGLMWBBXX_TC-D8-BCD-1_ATTCAGAA-CCTATCCT_L005_R1_001.fastq.gz,HGLMWBBXX_TC-D8-BCD-1_ATTCAGAA-CCTATCCT_L006_R1_001.fastq.gz,HGLMWBBXX_TC-D8-BCD-1_ATTCAGAA-CCTATCCT_L007_R1_001.fastq.gz,HGLMWBBXX_TC-D8-BCD-1_ATTCAGAA-CCTATCCT_L008_R1_001.fastq.gz
TC_D8_BCD-2,/mnt/SeqData1/salmon/Genosysfat/161208_K00253.B.Project_Sandve-RNAlibs6-2016-09-13,Sample_TC-D8-BCD-2,HGLMWBBXX_TC-D8-BCD-2_ATTCAGAA-GGCTCTGA_L001_R1_001.fastq.gz,HGLMWBBXX_TC-D8-BCD-2_ATTCAGAA-GGCTCTGA_L002_R1_001.fastq.gz,HGLMWBBXX_TC-D8-BCD-2_ATTCAGAA-GGCTCTGA_L003_R1_001.fastq.gz,HGLMWBBXX_TC-D8-BCD-2_ATTCAGAA-GGCTCTGA_L004_R1_001.fastq.gz,HGLMWBBXX_TC-D8-BCD-2_ATTCAGAA-GGCTCTGA_L005_R1_001.fastq.gz,HGLMWBBXX_TC-D8-BCD-2_ATTCAGAA-GGCTCTGA_L006_R1_001.fastq.gz,HGLMWBBXX_TC-D8-BCD-2_ATTCAGAA-GGCTCTGA_L007_R1_001.fastq.gz,HGLMWBBXX_TC-D8-BCD-2_ATTCAGAA-GGCTCTGA_L008_R1_001.fastq.gz
TC_D8_BCD-3,/mnt/SeqData1/salmon/Genosysfat/161208_K00253.B.Project_Sandve-RNAlibs6-2016-09-13,Sample_TC-D8-BCD-3,HGLMWBBXX_TC-D8-BCD-3_ATTCAGAA-AGGCGAAG_L001_R1_001.fastq.gz,HGLMWBBXX_TC-D8-BCD-3_ATTCAGAA-AGGCGAAG_L002_R1_001.fastq.gz,HGLMWBBXX_TC-D8-BCD-3_ATTCAGAA-AGGCGAAG_L003_R1_001.fastq.gz,HGLMWBBXX_TC-D8-BCD-3_ATTCAGAA-AGGCGAAG_L004_R1_001.fastq.gz,HGLMWBBXX_TC-D8-BCD-3_ATTCAGAA-AGGCGAAG_L005_R1_001.fastq.gz,HGLMWBBXX_TC-D8-BCD-3_ATTCAGAA-AGGCGAAG_L006_R1_001.fastq.gz,HGLMWBBXX_TC-D8-BCD-3_ATTCAGAA-AGGCGAAG_L007_R1_001.fastq.gz,HGLMWBBXX_TC-D8-BCD-3_ATTCAGAA-AGGCGAAG_L008_R1_001.fastq.gz
TC_D9_ALA-1,/mnt/SeqData1/salmon/Genosysfat/161208_K00253.B.Project_Sandve-RNAlibs6-2016-09-13,Sample_TC-D9-ALA-1,HGLMWBBXX_TC-D9-ALA-1_ATTCAGAA-TAATCTTA_L001_R1_001.fastq.gz,HGLMWBBXX_TC-D9-ALA-1_ATTCAGAA-TAATCTTA_L002_R1_001.fastq.gz,HGLMWBBXX_TC-D9-ALA-1_ATTCAGAA-TAATCTTA_L003_R1_001.fastq.gz,HGLMWBBXX_TC-D9-ALA-1_ATTCAGAA-TAATCTTA_L004_R1_001.fastq.gz,HGLMWBBXX_TC-D9-ALA-1_ATTCAGAA-TAATCTTA_L005_R1_001.fastq.gz,HGLMWBBXX_TC-D9-ALA-1_ATTCAGAA-TAATCTTA_L006_R1_001.fastq.gz,HGLMWBBXX_TC-D9-ALA-1_ATTCAGAA-TAATCTTA_L007_R1_001.fastq.gz,HGLMWBBXX_TC-D9-ALA-1_ATTCAGAA-TAATCTTA_L008_R1_001.fastq.gz
TC_D9_ALA-2,/mnt/SeqData1/salmon/Genosysfat/161208_K00253.B.Project_Sandve-RNAlibs6-2016-09-13,Sample_TC-D9-ALA-2,HGLMWBBXX_TC-D9-ALA-2_ATTCAGAA-CAGGACGT_L001_R1_001.fastq.gz,HGLMWBBXX_TC-D9-ALA-2_ATTCAGAA-CAGGACGT_L002_R1_001.fastq.gz,HGLMWBBXX_TC-D9-ALA-2_ATTCAGAA-CAGGACGT_L003_R1_001.fastq.gz,HGLMWBBXX_TC-D9-ALA-2_ATTCAGAA-CAGGACGT_L004_R1_001.fastq.gz,HGLMWBBXX_TC-D9-ALA-2_ATTCAGAA-CAGGACGT_L005_R1_001.fastq.gz,HGLMWBBXX_TC-D9-ALA-2_ATTCAGAA-CAGGACGT_L006_R1_001.fastq.gz,HGLMWBBXX_TC-D9-ALA-2_ATTCAGAA-CAGGACGT_L007_R1_001.fastq.gz,HGLMWBBXX_TC-D9-ALA-2_ATTCAGAA-CAGGACGT_L008_R1_001.fastq.gz
TC_D9_ALA-3,/mnt/SeqData1/salmon/Genosysfat/161208_K00253.B.Project_Sandve-RNAlibs6-2016-09-13,Sample_TC-D9-ALA-3,HGLMWBBXX_TC-D9-ALA-3_ATTCAGAA-GTACTGAC_L001_R1_001.fastq.gz,HGLMWBBXX_TC-D9-ALA-3_ATTCAGAA-GTACTGAC_L002_R1_001.fastq.gz,HGLMWBBXX_TC-D9-ALA-3_ATTCAGAA-GTACTGAC_L003_R1_001.fastq.gz,HGLMWBBXX_TC-D9-ALA-3_ATTCAGAA-GTACTGAC_L004_R1_001.fastq.gz,HGLMWBBXX_TC-D9-ALA-3_ATTCAGAA-GTACTGAC_L005_R1_001.fastq.gz,HGLMWBBXX_TC-D9-ALA-3_ATTCAGAA-GTACTGAC_L006_R1_001.fastq.gz,HGLMWBBXX_TC-D9-ALA-3_ATTCAGAA-GTACTGAC_L007_R1_001.fastq.gz,HGLMWBBXX_TC-D9-ALA-3_ATTCAGAA-GTACTGAC_L008_R1_001.fastq.gz
TC_D9_BCD-1,/mnt/SeqData1/salmon/Genosysfat/161208_K00253.B.Project_Sandve-RNAlibs6-2016-09-13,Sample_TC-D9-BCD-1,HGLMWBBXX_TC-D9-BCD-1_GAATTCGT-TATAGCCT_L001_R1_001.fastq.gz,HGLMWBBXX_TC-D9-BCD-1_GAATTCGT-TATAGCCT_L002_R1_001.fastq.gz,HGLMWBBXX_TC-D9-BCD-1_GAATTCGT-TATAGCCT_L003_R1_001.fastq.gz,HGLMWBBXX_TC-D9-BCD-1_GAATTCGT-TATAGCCT_L004_R1_001.fastq.gz,HGLMWBBXX_TC-D9-BCD-1_GAATTCGT-TATAGCCT_L005_R1_001.fastq.gz,HGLMWBBXX_TC-D9-BCD-1_GAATTCGT-TATAGCCT_L006_R1_001.fastq.gz,HGLMWBBXX_TC-D9-BCD-1_GAATTCGT-TATAGCCT_L007_R1_001.fastq.gz,HGLMWBBXX_TC-D9-BCD-1_GAATTCGT-TATAGCCT_L008_R1_001.fastq.gz
TC_D9_BCD-2,/mnt/SeqData1/salmon/Genosysfat/161208_K00253.B.Project_Sandve-RNAlibs6-2016-09-13,Sample_TC-D9-BCD-2,HGLMWBBXX_TC-D9-BCD-2_GAATTCGT-ATAGAGGC_L001_R1_001.fastq.gz,HGLMWBBXX_TC-D9-BCD-2_GAATTCGT-ATAGAGGC_L002_R1_001.fastq.gz,HGLMWBBXX_TC-D9-BCD-2_GAATTCGT-ATAGAGGC_L003_R1_001.fastq.gz,HGLMWBBXX_TC-D9-BCD-2_GAATTCGT-ATAGAGGC_L004_R1_001.fastq.gz,HGLMWBBXX_TC-D9-BCD-2_GAATTCGT-ATAGAGGC_L005_R1_001.fastq.gz,HGLMWBBXX_TC-D9-BCD-2_GAATTCGT-ATAGAGGC_L006_R1_001.fastq.gz,HGLMWBBXX_TC-D9-BCD-2_GAATTCGT-ATAGAGGC_L007_R1_001.fastq.gz,HGLMWBBXX_TC-D9-BCD-2_GAATTCGT-ATAGAGGC_L008_R1_001.fastq.gz
TC_D9_BCD-3,/mnt/SeqData1/salmon/Genosysfat/161208_K00253.B.Project_Sandve-RNAlibs6-2016-09-13,Sample_TC-D9-BCD-3,HGLMWBBXX_TC-D9-BCD-3_GAATTCGT-CCTATCCT_L001_R1_001.fastq.gz,HGLMWBBXX_TC-D9-BCD-3_GAATTCGT-CCTATCCT_L002_R1_001.fastq.gz,HGLMWBBXX_TC-D9-BCD-3_GAATTCGT-CCTATCCT_L003_R1_001.fastq.gz,HGLMWBBXX_TC-D9-BCD-3_GAATTCGT-CCTATCCT_L004_R1_001.fastq.gz,HGLMWBBXX_TC-D9-BCD-3_GAATTCGT-CCTATCCT_L005_R1_001.fastq.gz,HGLMWBBXX_TC-D9-BCD-3_GAATTCGT-CCTATCCT_L006_R1_001.fastq.gz,HGLMWBBXX_TC-D9-BCD-3_GAATTCGT-CCTATCCT_L007_R1_001.fastq.gz,HGLMWBBXX_TC-D9-BCD-3_GAATTCGT-CCTATCCT_L008_R1_001.fastq.gz
