Sample Name,Directory,subdir,RawDataFile1,RawDataFile2,RawDataFile3,RawDataFile4,RawDataFile5,RawDataFile6
G2-1-1-1-c,/mnt/project/GenoSysFat/Rawdata/fastq/180511_J00146.A.Project_HolenM-RNAlibs1-2018-04-18,Sample_27-G2-1-1-1-c,27-G2-1-1-1-c_S54_L003_R1_001.fastq.gz,27-G2-1-1-1-c_S54_L004_R1_001.fastq.gz,27-G2-1-1-1-c_S54_L005_R1_001.fastq.gz,27-G2-1-1-1-c_S54_L006_R1_001.fastq.gz,27-G2-1-1-1-c_S54_L007_R1_001.fastq.gz,27-G2-1-1-1-c_S54_L008_R1_001.fastq.gz
G2-1-1-1-A,/mnt/project/GenoSysFat/Rawdata/fastq/180511_J00146.A.Project_HolenM-RNAlibs1-2018-04-18,Sample_28-G2-1-1-1-A,28-G2-1-1-1-A_S64_L003_R1_001.fastq.gz,28-G2-1-1-1-A_S64_L004_R1_001.fastq.gz,28-G2-1-1-1-A_S64_L005_R1_001.fastq.gz,28-G2-1-1-1-A_S64_L006_R1_001.fastq.gz,28-G2-1-1-1-A_S64_L007_R1_001.fastq.gz,28-G2-1-1-1-A_S64_L008_R1_001.fastq.gz
G2-1-1-1-D,/mnt/project/GenoSysFat/Rawdata/fastq/180511_J00146.A.Project_HolenM-RNAlibs1-2018-04-18,Sample_29-G2-1-1-1-D,29-G2-1-1-1-D_S74_L003_R1_001.fastq.gz,29-G2-1-1-1-D_S74_L004_R1_001.fastq.gz,29-G2-1-1-1-D_S74_L005_R1_001.fastq.gz,29-G2-1-1-1-D_S74_L006_R1_001.fastq.gz,29-G2-1-1-1-D_S74_L007_R1_001.fastq.gz,29-G2-1-1-1-D_S74_L008_R1_001.fastq.gz
G2-1-1-3-c,/mnt/project/GenoSysFat/Rawdata/fastq/180511_J00146.A.Project_HolenM-RNAlibs1-2018-04-18,Sample_30-G2-1-1-3-c,30-G2-1-1-3-c_S84_L003_R1_001.fastq.gz,30-G2-1-1-3-c_S84_L004_R1_001.fastq.gz,30-G2-1-1-3-c_S84_L005_R1_001.fastq.gz,30-G2-1-1-3-c_S84_L006_R1_001.fastq.gz,30-G2-1-1-3-c_S84_L007_R1_001.fastq.gz,30-G2-1-1-3-c_S84_L008_R1_001.fastq.gz
G2-1-1-3-A,/mnt/project/GenoSysFat/Rawdata/fastq/180511_J00146.A.Project_HolenM-RNAlibs1-2018-04-18,Sample_31-G2-1-1-3-A,31-G2-1-1-3-A_S94_L003_R1_001.fastq.gz,31-G2-1-1-3-A_S94_L004_R1_001.fastq.gz,31-G2-1-1-3-A_S94_L005_R1_001.fastq.gz,31-G2-1-1-3-A_S94_L006_R1_001.fastq.gz,31-G2-1-1-3-A_S94_L007_R1_001.fastq.gz,31-G2-1-1-3-A_S94_L008_R1_001.fastq.gz
G2-1-1-3-D,/mnt/project/GenoSysFat/Rawdata/fastq/180511_J00146.A.Project_HolenM-RNAlibs1-2018-04-18,Sample_32-G2-1-1-3-D,32-G2-1-1-3-D_S27_L003_R1_001.fastq.gz,32-G2-1-1-3-D_S27_L004_R1_001.fastq.gz,32-G2-1-1-3-D_S27_L005_R1_001.fastq.gz,32-G2-1-1-3-D_S27_L006_R1_001.fastq.gz,32-G2-1-1-3-D_S27_L007_R1_001.fastq.gz,32-G2-1-1-3-D_S27_L008_R1_001.fastq.gz
G2-1-2-1-c,/mnt/project/GenoSysFat/Rawdata/fastq/180511_J00146.A.Project_HolenM-RNAlibs1-2018-04-18,Sample_33-G2-1-2-1-c,33-G2-1-2-1-c_S36_L003_R1_001.fastq.gz,33-G2-1-2-1-c_S36_L004_R1_001.fastq.gz,33-G2-1-2-1-c_S36_L005_R1_001.fastq.gz,33-G2-1-2-1-c_S36_L006_R1_001.fastq.gz,33-G2-1-2-1-c_S36_L007_R1_001.fastq.gz,33-G2-1-2-1-c_S36_L008_R1_001.fastq.gz
G2-1-2-1-A,/mnt/project/GenoSysFat/Rawdata/fastq/180511_J00146.A.Project_HolenM-RNAlibs1-2018-04-18,Sample_34-G2-1-2-1-A,34-G2-1-2-1-A_S45_L003_R1_001.fastq.gz,34-G2-1-2-1-A_S45_L004_R1_001.fastq.gz,34-G2-1-2-1-A_S45_L005_R1_001.fastq.gz,34-G2-1-2-1-A_S45_L006_R1_001.fastq.gz,34-G2-1-2-1-A_S45_L007_R1_001.fastq.gz,34-G2-1-2-1-A_S45_L008_R1_001.fastq.gz
G2-1-2-1-D,/mnt/project/GenoSysFat/Rawdata/fastq/180511_J00146.A.Project_HolenM-RNAlibs1-2018-04-18,Sample_35-G2-1-2-1-D,35-G2-1-2-1-D_S55_L003_R1_001.fastq.gz,35-G2-1-2-1-D_S55_L004_R1_001.fastq.gz,35-G2-1-2-1-D_S55_L005_R1_001.fastq.gz,35-G2-1-2-1-D_S55_L006_R1_001.fastq.gz,35-G2-1-2-1-D_S55_L007_R1_001.fastq.gz,35-G2-1-2-1-D_S55_L008_R1_001.fastq.gz
G2-1-2-3-c,/mnt/project/GenoSysFat/Rawdata/fastq/180511_J00146.A.Project_HolenM-RNAlibs1-2018-04-18,Sample_36-G2-1-2-3-c,36-G2-1-2-3-c_S65_L003_R1_001.fastq.gz,36-G2-1-2-3-c_S65_L004_R1_001.fastq.gz,36-G2-1-2-3-c_S65_L005_R1_001.fastq.gz,36-G2-1-2-3-c_S65_L006_R1_001.fastq.gz,36-G2-1-2-3-c_S65_L007_R1_001.fastq.gz,36-G2-1-2-3-c_S65_L008_R1_001.fastq.gz
G2-1-2-3-A,/mnt/project/GenoSysFat/Rawdata/fastq/180511_J00146.A.Project_HolenM-RNAlibs1-2018-04-18,Sample_37-G2-1-2-3-A,37-G2-1-2-3-A_S75_L003_R1_001.fastq.gz,37-G2-1-2-3-A_S75_L004_R1_001.fastq.gz,37-G2-1-2-3-A_S75_L005_R1_001.fastq.gz,37-G2-1-2-3-A_S75_L006_R1_001.fastq.gz,37-G2-1-2-3-A_S75_L007_R1_001.fastq.gz,37-G2-1-2-3-A_S75_L008_R1_001.fastq.gz
G2-1-2-3-D,/mnt/project/GenoSysFat/Rawdata/fastq/180511_J00146.A.Project_HolenM-RNAlibs1-2018-04-18,Sample_38-G2-1-2-3-D,38-G2-1-2-3-D_S85_L003_R1_001.fastq.gz,38-G2-1-2-3-D_S85_L004_R1_001.fastq.gz,38-G2-1-2-3-D_S85_L005_R1_001.fastq.gz,38-G2-1-2-3-D_S85_L006_R1_001.fastq.gz,38-G2-1-2-3-D_S85_L007_R1_001.fastq.gz,38-G2-1-2-3-D_S85_L008_R1_001.fastq.gz
G2-10-1-1-c,/mnt/project/GenoSysFat/Rawdata/fastq/180511_J00146.A.Project_HolenM-RNAlibs1-2018-04-18,Sample_39-G2-10-1-1-c,39-G2-10-1-1-c_S95_L003_R1_001.fastq.gz,39-G2-10-1-1-c_S95_L004_R1_001.fastq.gz,39-G2-10-1-1-c_S95_L005_R1_001.fastq.gz,39-G2-10-1-1-c_S95_L006_R1_001.fastq.gz,39-G2-10-1-1-c_S95_L007_R1_001.fastq.gz,39-G2-10-1-1-c_S95_L008_R1_001.fastq.gz
G2-10-1-1-A,/mnt/project/GenoSysFat/Rawdata/fastq/180511_J00146.A.Project_HolenM-RNAlibs1-2018-04-18,Sample_40-G2-10-1-1-A,40-G2-10-1-1-A_S28_L003_R1_001.fastq.gz,40-G2-10-1-1-A_S28_L004_R1_001.fastq.gz,40-G2-10-1-1-A_S28_L005_R1_001.fastq.gz,40-G2-10-1-1-A_S28_L006_R1_001.fastq.gz,40-G2-10-1-1-A_S28_L007_R1_001.fastq.gz,40-G2-10-1-1-A_S28_L008_R1_001.fastq.gz
G2-10-1-1-D,/mnt/project/GenoSysFat/Rawdata/fastq/180511_J00146.A.Project_HolenM-RNAlibs1-2018-04-18,Sample_41-G2-10-1-1-D,41-G2-10-1-1-D_S37_L003_R1_001.fastq.gz,41-G2-10-1-1-D_S37_L004_R1_001.fastq.gz,41-G2-10-1-1-D_S37_L005_R1_001.fastq.gz,41-G2-10-1-1-D_S37_L006_R1_001.fastq.gz,41-G2-10-1-1-D_S37_L007_R1_001.fastq.gz,41-G2-10-1-1-D_S37_L008_R1_001.fastq.gz
G2-10-1-3-c,/mnt/project/GenoSysFat/Rawdata/fastq/180511_J00146.A.Project_HolenM-RNAlibs1-2018-04-18,Sample_42-G2-10-1-3-c,42-G2-10-1-3-c_S46_L003_R1_001.fastq.gz,42-G2-10-1-3-c_S46_L004_R1_001.fastq.gz,42-G2-10-1-3-c_S46_L005_R1_001.fastq.gz,42-G2-10-1-3-c_S46_L006_R1_001.fastq.gz,42-G2-10-1-3-c_S46_L007_R1_001.fastq.gz,42-G2-10-1-3-c_S46_L008_R1_001.fastq.gz
G2-10-1-3-A,/mnt/project/GenoSysFat/Rawdata/fastq/180511_J00146.A.Project_HolenM-RNAlibs1-2018-04-18,Sample_43-G2-10-1-3-A,43-G2-10-1-3-A_S56_L003_R1_001.fastq.gz,43-G2-10-1-3-A_S56_L004_R1_001.fastq.gz,43-G2-10-1-3-A_S56_L005_R1_001.fastq.gz,43-G2-10-1-3-A_S56_L006_R1_001.fastq.gz,43-G2-10-1-3-A_S56_L007_R1_001.fastq.gz,43-G2-10-1-3-A_S56_L008_R1_001.fastq.gz
G2-10-1-3-D,/mnt/project/GenoSysFat/Rawdata/fastq/180511_J00146.A.Project_HolenM-RNAlibs1-2018-04-18,Sample_44-G2-10-1-3-D,44-G2-10-1-3-D_S66_L003_R1_001.fastq.gz,44-G2-10-1-3-D_S66_L004_R1_001.fastq.gz,44-G2-10-1-3-D_S66_L005_R1_001.fastq.gz,44-G2-10-1-3-D_S66_L006_R1_001.fastq.gz,44-G2-10-1-3-D_S66_L007_R1_001.fastq.gz,44-G2-10-1-3-D_S66_L008_R1_001.fastq.gz
G2-10-2-1-c,/mnt/project/GenoSysFat/Rawdata/fastq/180511_J00146.A.Project_HolenM-RNAlibs1-2018-04-18,Sample_45-G2-10-2-1-c,45-G2-10-2-1-c_S76_L003_R1_001.fastq.gz,45-G2-10-2-1-c_S76_L004_R1_001.fastq.gz,45-G2-10-2-1-c_S76_L005_R1_001.fastq.gz,45-G2-10-2-1-c_S76_L006_R1_001.fastq.gz,45-G2-10-2-1-c_S76_L007_R1_001.fastq.gz,45-G2-10-2-1-c_S76_L008_R1_001.fastq.gz
G2-10-2-1-A,/mnt/project/GenoSysFat/Rawdata/fastq/180511_J00146.A.Project_HolenM-RNAlibs1-2018-04-18,Sample_46-G2-10-2-1-A,46-G2-10-2-1-A_S86_L003_R1_001.fastq.gz,46-G2-10-2-1-A_S86_L004_R1_001.fastq.gz,46-G2-10-2-1-A_S86_L005_R1_001.fastq.gz,46-G2-10-2-1-A_S86_L006_R1_001.fastq.gz,46-G2-10-2-1-A_S86_L007_R1_001.fastq.gz,46-G2-10-2-1-A_S86_L008_R1_001.fastq.gz
G2-10-2-1-D,/mnt/project/GenoSysFat/Rawdata/fastq/180511_J00146.A.Project_HolenM-RNAlibs1-2018-04-18,Sample_47-G2-10-2-1-D,47-G2-10-2-1-D_S96_L003_R1_001.fastq.gz,47-G2-10-2-1-D_S96_L004_R1_001.fastq.gz,47-G2-10-2-1-D_S96_L005_R1_001.fastq.gz,47-G2-10-2-1-D_S96_L006_R1_001.fastq.gz,47-G2-10-2-1-D_S96_L007_R1_001.fastq.gz,47-G2-10-2-1-D_S96_L008_R1_001.fastq.gz
G2-10-2-3-c,/mnt/project/GenoSysFat/Rawdata/fastq/180511_J00146.A.Project_HolenM-RNAlibs1-2018-04-18,Sample_48-G2-10-2-3-c,48-G2-10-2-3-c_S29_L003_R1_001.fastq.gz,48-G2-10-2-3-c_S29_L004_R1_001.fastq.gz,48-G2-10-2-3-c_S29_L005_R1_001.fastq.gz,48-G2-10-2-3-c_S29_L006_R1_001.fastq.gz,48-G2-10-2-3-c_S29_L007_R1_001.fastq.gz,48-G2-10-2-3-c_S29_L008_R1_001.fastq.gz
G2-10-2-3-A,/mnt/project/GenoSysFat/Rawdata/fastq/180511_J00146.A.Project_HolenM-RNAlibs1-2018-04-18,Sample_49-G2-10-2-3-A,49-G2-10-2-3-A_S38_L003_R1_001.fastq.gz,49-G2-10-2-3-A_S38_L004_R1_001.fastq.gz,49-G2-10-2-3-A_S38_L005_R1_001.fastq.gz,49-G2-10-2-3-A_S38_L006_R1_001.fastq.gz,49-G2-10-2-3-A_S38_L007_R1_001.fastq.gz,49-G2-10-2-3-A_S38_L008_R1_001.fastq.gz
G2-10-2-3-D,/mnt/project/GenoSysFat/Rawdata/fastq/180511_J00146.A.Project_HolenM-RNAlibs1-2018-04-18,Sample_50-G2-10-2-3-D,50-G2-10-2-3-D_S47_L003_R1_001.fastq.gz,50-G2-10-2-3-D_S47_L004_R1_001.fastq.gz,50-G2-10-2-3-D_S47_L005_R1_001.fastq.gz,50-G2-10-2-3-D_S47_L006_R1_001.fastq.gz,50-G2-10-2-3-D_S47_L007_R1_001.fastq.gz,50-G2-10-2-3-D_S47_L008_R1_001.fastq.gz
G2-19-1-1-c,/mnt/project/GenoSysFat/Rawdata/fastq/180511_J00146.A.Project_HolenM-RNAlibs1-2018-04-18,Sample_51-G2-19-1-1-c,51-G2-19-1-1-c_S57_L003_R1_001.fastq.gz,51-G2-19-1-1-c_S57_L004_R1_001.fastq.gz,51-G2-19-1-1-c_S57_L005_R1_001.fastq.gz,51-G2-19-1-1-c_S57_L006_R1_001.fastq.gz,51-G2-19-1-1-c_S57_L007_R1_001.fastq.gz,51-G2-19-1-1-c_S57_L008_R1_001.fastq.gz
G2-19-1-1-A,/mnt/project/GenoSysFat/Rawdata/fastq/180511_J00146.A.Project_HolenM-RNAlibs1-2018-04-18,Sample_52-G2-19-1-1-A,52-G2-19-1-1-A_S67_L003_R1_001.fastq.gz,52-G2-19-1-1-A_S67_L004_R1_001.fastq.gz,52-G2-19-1-1-A_S67_L005_R1_001.fastq.gz,52-G2-19-1-1-A_S67_L006_R1_001.fastq.gz,52-G2-19-1-1-A_S67_L007_R1_001.fastq.gz,52-G2-19-1-1-A_S67_L008_R1_001.fastq.gz
G2-19-1-1-D,/mnt/project/GenoSysFat/Rawdata/fastq/180511_J00146.A.Project_HolenM-RNAlibs1-2018-04-18,Sample_53-G2-19-1-1-D,53-G2-19-1-1-D_S77_L003_R1_001.fastq.gz,53-G2-19-1-1-D_S77_L004_R1_001.fastq.gz,53-G2-19-1-1-D_S77_L005_R1_001.fastq.gz,53-G2-19-1-1-D_S77_L006_R1_001.fastq.gz,53-G2-19-1-1-D_S77_L007_R1_001.fastq.gz,53-G2-19-1-1-D_S77_L008_R1_001.fastq.gz
G2-19-1-3-c,/mnt/project/GenoSysFat/Rawdata/fastq/180511_J00146.A.Project_HolenM-RNAlibs1-2018-04-18,Sample_54-G2-19-1-3-c,54-G2-19-1-3-c_S87_L003_R1_001.fastq.gz,54-G2-19-1-3-c_S87_L004_R1_001.fastq.gz,54-G2-19-1-3-c_S87_L005_R1_001.fastq.gz,54-G2-19-1-3-c_S87_L006_R1_001.fastq.gz,54-G2-19-1-3-c_S87_L007_R1_001.fastq.gz,54-G2-19-1-3-c_S87_L008_R1_001.fastq.gz
G2-19-1-3-A,/mnt/project/GenoSysFat/Rawdata/fastq/180511_J00146.A.Project_HolenM-RNAlibs1-2018-04-18,Sample_55-G2-19-1-3-A,55-G2-19-1-3-A_S97_L003_R1_001.fastq.gz,55-G2-19-1-3-A_S97_L004_R1_001.fastq.gz,55-G2-19-1-3-A_S97_L005_R1_001.fastq.gz,55-G2-19-1-3-A_S97_L006_R1_001.fastq.gz,55-G2-19-1-3-A_S97_L007_R1_001.fastq.gz,55-G2-19-1-3-A_S97_L008_R1_001.fastq.gz
G2-19-1-3-D,/mnt/project/GenoSysFat/Rawdata/fastq/180511_J00146.A.Project_HolenM-RNAlibs1-2018-04-18,Sample_56-G2-19-1-3-D,56-G2-19-1-3-D_S30_L003_R1_001.fastq.gz,56-G2-19-1-3-D_S30_L004_R1_001.fastq.gz,56-G2-19-1-3-D_S30_L005_R1_001.fastq.gz,56-G2-19-1-3-D_S30_L006_R1_001.fastq.gz,56-G2-19-1-3-D_S30_L007_R1_001.fastq.gz,56-G2-19-1-3-D_S30_L008_R1_001.fastq.gz
G2-19-2-1-c,/mnt/project/GenoSysFat/Rawdata/fastq/180511_J00146.A.Project_HolenM-RNAlibs1-2018-04-18,Sample_57-G2-19-2-1-c,57-G2-19-2-1-c_S39_L003_R1_001.fastq.gz,57-G2-19-2-1-c_S39_L004_R1_001.fastq.gz,57-G2-19-2-1-c_S39_L005_R1_001.fastq.gz,57-G2-19-2-1-c_S39_L006_R1_001.fastq.gz,57-G2-19-2-1-c_S39_L007_R1_001.fastq.gz,57-G2-19-2-1-c_S39_L008_R1_001.fastq.gz
G2-19-2-1-A,/mnt/project/GenoSysFat/Rawdata/fastq/180511_J00146.A.Project_HolenM-RNAlibs1-2018-04-18,Sample_58-G2-19-2-1-A,58-G2-19-2-1-A_S48_L003_R1_001.fastq.gz,58-G2-19-2-1-A_S48_L004_R1_001.fastq.gz,58-G2-19-2-1-A_S48_L005_R1_001.fastq.gz,58-G2-19-2-1-A_S48_L006_R1_001.fastq.gz,58-G2-19-2-1-A_S48_L007_R1_001.fastq.gz,58-G2-19-2-1-A_S48_L008_R1_001.fastq.gz
G2-19-2-1-D,/mnt/project/GenoSysFat/Rawdata/fastq/180511_J00146.A.Project_HolenM-RNAlibs1-2018-04-18,Sample_59-G2-19-2-1-D,59-G2-19-2-1-D_S58_L003_R1_001.fastq.gz,59-G2-19-2-1-D_S58_L004_R1_001.fastq.gz,59-G2-19-2-1-D_S58_L005_R1_001.fastq.gz,59-G2-19-2-1-D_S58_L006_R1_001.fastq.gz,59-G2-19-2-1-D_S58_L007_R1_001.fastq.gz,59-G2-19-2-1-D_S58_L008_R1_001.fastq.gz
G2-19-2-3-c,/mnt/project/GenoSysFat/Rawdata/fastq/180511_J00146.A.Project_HolenM-RNAlibs1-2018-04-18,Sample_60-G2-19-2-3-c,60-G2-19-2-3-c_S68_L003_R1_001.fastq.gz,60-G2-19-2-3-c_S68_L004_R1_001.fastq.gz,60-G2-19-2-3-c_S68_L005_R1_001.fastq.gz,60-G2-19-2-3-c_S68_L006_R1_001.fastq.gz,60-G2-19-2-3-c_S68_L007_R1_001.fastq.gz,60-G2-19-2-3-c_S68_L008_R1_001.fastq.gz
G2-19-2-3-A,/mnt/project/GenoSysFat/Rawdata/fastq/180511_J00146.A.Project_HolenM-RNAlibs1-2018-04-18,Sample_61-G2-19-2-3-A,61-G2-19-2-3-A_S78_L003_R1_001.fastq.gz,61-G2-19-2-3-A_S78_L004_R1_001.fastq.gz,61-G2-19-2-3-A_S78_L005_R1_001.fastq.gz,61-G2-19-2-3-A_S78_L006_R1_001.fastq.gz,61-G2-19-2-3-A_S78_L007_R1_001.fastq.gz,61-G2-19-2-3-A_S78_L008_R1_001.fastq.gz
G2-19-2-3-D,/mnt/project/GenoSysFat/Rawdata/fastq/180511_J00146.A.Project_HolenM-RNAlibs1-2018-04-18,Sample_62-G2-19-2-3-D,62-G2-19-2-3-D_S88_L003_R1_001.fastq.gz,62-G2-19-2-3-D_S88_L004_R1_001.fastq.gz,62-G2-19-2-3-D_S88_L005_R1_001.fastq.gz,62-G2-19-2-3-D_S88_L006_R1_001.fastq.gz,62-G2-19-2-3-D_S88_L007_R1_001.fastq.gz,62-G2-19-2-3-D_S88_L008_R1_001.fastq.gz
G2-25-1-1-c,/mnt/project/GenoSysFat/Rawdata/fastq/180511_J00146.A.Project_HolenM-RNAlibs1-2018-04-18,Sample_63-G2-25-1-1-c,63-G2-25-1-1-c_S98_L003_R1_001.fastq.gz,63-G2-25-1-1-c_S98_L004_R1_001.fastq.gz,63-G2-25-1-1-c_S98_L005_R1_001.fastq.gz,63-G2-25-1-1-c_S98_L006_R1_001.fastq.gz,63-G2-25-1-1-c_S98_L007_R1_001.fastq.gz,63-G2-25-1-1-c_S98_L008_R1_001.fastq.gz
G2-25-1-1-A,/mnt/project/GenoSysFat/Rawdata/fastq/180511_J00146.A.Project_HolenM-RNAlibs1-2018-04-18,Sample_64-G2-25-1-1-A,64-G2-25-1-1-A_S31_L003_R1_001.fastq.gz,64-G2-25-1-1-A_S31_L004_R1_001.fastq.gz,64-G2-25-1-1-A_S31_L005_R1_001.fastq.gz,64-G2-25-1-1-A_S31_L006_R1_001.fastq.gz,64-G2-25-1-1-A_S31_L007_R1_001.fastq.gz,64-G2-25-1-1-A_S31_L008_R1_001.fastq.gz
G2-25-1-1-D,/mnt/project/GenoSysFat/Rawdata/fastq/180511_J00146.A.Project_HolenM-RNAlibs1-2018-04-18,Sample_65-G2-25-1-1-D,65-G2-25-1-1-D_S40_L003_R1_001.fastq.gz,65-G2-25-1-1-D_S40_L004_R1_001.fastq.gz,65-G2-25-1-1-D_S40_L005_R1_001.fastq.gz,65-G2-25-1-1-D_S40_L006_R1_001.fastq.gz,65-G2-25-1-1-D_S40_L007_R1_001.fastq.gz,65-G2-25-1-1-D_S40_L008_R1_001.fastq.gz
G2-25-1-3-c,/mnt/project/GenoSysFat/Rawdata/fastq/180511_J00146.A.Project_HolenM-RNAlibs1-2018-04-18,Sample_66-G2-25-1-3-c,66-G2-25-1-3-c_S49_L003_R1_001.fastq.gz,66-G2-25-1-3-c_S49_L004_R1_001.fastq.gz,66-G2-25-1-3-c_S49_L005_R1_001.fastq.gz,66-G2-25-1-3-c_S49_L006_R1_001.fastq.gz,66-G2-25-1-3-c_S49_L007_R1_001.fastq.gz,66-G2-25-1-3-c_S49_L008_R1_001.fastq.gz
G2-25-1-3-A,/mnt/project/GenoSysFat/Rawdata/fastq/180511_J00146.A.Project_HolenM-RNAlibs1-2018-04-18,Sample_67-G2-25-1-3-A,67-G2-25-1-3-A_S59_L003_R1_001.fastq.gz,67-G2-25-1-3-A_S59_L004_R1_001.fastq.gz,67-G2-25-1-3-A_S59_L005_R1_001.fastq.gz,67-G2-25-1-3-A_S59_L006_R1_001.fastq.gz,67-G2-25-1-3-A_S59_L007_R1_001.fastq.gz,67-G2-25-1-3-A_S59_L008_R1_001.fastq.gz
G2-25-1-3-D,/mnt/project/GenoSysFat/Rawdata/fastq/180511_J00146.A.Project_HolenM-RNAlibs1-2018-04-18,Sample_68-G2-25-1-3-D,68-G2-25-1-3-D_S69_L003_R1_001.fastq.gz,68-G2-25-1-3-D_S69_L004_R1_001.fastq.gz,68-G2-25-1-3-D_S69_L005_R1_001.fastq.gz,68-G2-25-1-3-D_S69_L006_R1_001.fastq.gz,68-G2-25-1-3-D_S69_L007_R1_001.fastq.gz,68-G2-25-1-3-D_S69_L008_R1_001.fastq.gz
G2-25-2-1-c,/mnt/project/GenoSysFat/Rawdata/fastq/180511_J00146.A.Project_HolenM-RNAlibs1-2018-04-18,Sample_69-G2-25-2-1-c,69-G2-25-2-1-c_S79_L003_R1_001.fastq.gz,69-G2-25-2-1-c_S79_L004_R1_001.fastq.gz,69-G2-25-2-1-c_S79_L005_R1_001.fastq.gz,69-G2-25-2-1-c_S79_L006_R1_001.fastq.gz,69-G2-25-2-1-c_S79_L007_R1_001.fastq.gz,69-G2-25-2-1-c_S79_L008_R1_001.fastq.gz
G2-25-2-1-A,/mnt/project/GenoSysFat/Rawdata/fastq/180511_J00146.A.Project_HolenM-RNAlibs1-2018-04-18,Sample_70-G2-25-2-1-A,70-G2-25-2-1-A_S89_L003_R1_001.fastq.gz,70-G2-25-2-1-A_S89_L004_R1_001.fastq.gz,70-G2-25-2-1-A_S89_L005_R1_001.fastq.gz,70-G2-25-2-1-A_S89_L006_R1_001.fastq.gz,70-G2-25-2-1-A_S89_L007_R1_001.fastq.gz,70-G2-25-2-1-A_S89_L008_R1_001.fastq.gz
G2-25-2-1-D,/mnt/project/GenoSysFat/Rawdata/fastq/180511_J00146.A.Project_HolenM-RNAlibs1-2018-04-18,Sample_71-G2-25-2-1-D,71-G2-25-2-1-D_S99_L003_R1_001.fastq.gz,71-G2-25-2-1-D_S99_L004_R1_001.fastq.gz,71-G2-25-2-1-D_S99_L005_R1_001.fastq.gz,71-G2-25-2-1-D_S99_L006_R1_001.fastq.gz,71-G2-25-2-1-D_S99_L007_R1_001.fastq.gz,71-G2-25-2-1-D_S99_L008_R1_001.fastq.gz
G2-25-2-3-c,/mnt/project/GenoSysFat/Rawdata/fastq/180511_J00146.A.Project_HolenM-RNAlibs1-2018-04-18,Sample_72-G2-25-2-3-c,72-G2-25-2-3-c_S32_L003_R1_001.fastq.gz,72-G2-25-2-3-c_S32_L004_R1_001.fastq.gz,72-G2-25-2-3-c_S32_L005_R1_001.fastq.gz,72-G2-25-2-3-c_S32_L006_R1_001.fastq.gz,72-G2-25-2-3-c_S32_L007_R1_001.fastq.gz,72-G2-25-2-3-c_S32_L008_R1_001.fastq.gz
G2-25-2-3-A,/mnt/project/GenoSysFat/Rawdata/fastq/180511_J00146.A.Project_HolenM-RNAlibs1-2018-04-18,Sample_73-G2-25-2-3-A,73-G2-25-2-3-A_S41_L003_R1_001.fastq.gz,73-G2-25-2-3-A_S41_L004_R1_001.fastq.gz,73-G2-25-2-3-A_S41_L005_R1_001.fastq.gz,73-G2-25-2-3-A_S41_L006_R1_001.fastq.gz,73-G2-25-2-3-A_S41_L007_R1_001.fastq.gz,73-G2-25-2-3-A_S41_L008_R1_001.fastq.gz
G2-25-2-3-D,/mnt/project/GenoSysFat/Rawdata/fastq/180511_J00146.A.Project_HolenM-RNAlibs1-2018-04-18,Sample_74-G2-25-2-3-D,74-G2-25-2-3-D_S50_L003_R1_001.fastq.gz,74-G2-25-2-3-D_S50_L004_R1_001.fastq.gz,74-G2-25-2-3-D_S50_L005_R1_001.fastq.gz,74-G2-25-2-3-D_S50_L006_R1_001.fastq.gz,74-G2-25-2-3-D_S50_L007_R1_001.fastq.gz,74-G2-25-2-3-D_S50_L008_R1_001.fastq.gz
G2-1-1-1-F,/mnt/project/GenoSysFat/Rawdata/fastq/180511_J00146.A.Project_HolenM-RNAlibs1-2018-04-18,Sample_75-G2-1-1-1-F,75-G2-1-1-1-F_S60_L003_R1_001.fastq.gz,75-G2-1-1-1-F_S60_L004_R1_001.fastq.gz,75-G2-1-1-1-F_S60_L005_R1_001.fastq.gz,75-G2-1-1-1-F_S60_L006_R1_001.fastq.gz,75-G2-1-1-1-F_S60_L007_R1_001.fastq.gz,75-G2-1-1-1-F_S60_L008_R1_001.fastq.gz
G2-1-1-3-F,/mnt/project/GenoSysFat/Rawdata/fastq/180511_J00146.A.Project_HolenM-RNAlibs1-2018-04-18,Sample_76-G2-1-1-3-F,76-G2-1-1-3-F_S70_L003_R1_001.fastq.gz,76-G2-1-1-3-F_S70_L004_R1_001.fastq.gz,76-G2-1-1-3-F_S70_L005_R1_001.fastq.gz,76-G2-1-1-3-F_S70_L006_R1_001.fastq.gz,76-G2-1-1-3-F_S70_L007_R1_001.fastq.gz,76-G2-1-1-3-F_S70_L008_R1_001.fastq.gz
G2-1-2-1-F,/mnt/project/GenoSysFat/Rawdata/fastq/180511_J00146.A.Project_HolenM-RNAlibs1-2018-04-18,Sample_77-G2-1-2-1-F,77-G2-1-2-1-F_S80_L003_R1_001.fastq.gz,77-G2-1-2-1-F_S80_L004_R1_001.fastq.gz,77-G2-1-2-1-F_S80_L005_R1_001.fastq.gz,77-G2-1-2-1-F_S80_L006_R1_001.fastq.gz,77-G2-1-2-1-F_S80_L007_R1_001.fastq.gz,77-G2-1-2-1-F_S80_L008_R1_001.fastq.gz
G2-1-2-3-F,/mnt/project/GenoSysFat/Rawdata/fastq/180511_J00146.A.Project_HolenM-RNAlibs1-2018-04-18,Sample_78-G2-1-2-3-F,78-G2-1-2-3-F_S90_L003_R1_001.fastq.gz,78-G2-1-2-3-F_S90_L004_R1_001.fastq.gz,78-G2-1-2-3-F_S90_L005_R1_001.fastq.gz,78-G2-1-2-3-F_S90_L006_R1_001.fastq.gz,78-G2-1-2-3-F_S90_L007_R1_001.fastq.gz,78-G2-1-2-3-F_S90_L008_R1_001.fastq.gz
G2-10-1-1-F,/mnt/project/GenoSysFat/Rawdata/fastq/180511_J00146.A.Project_HolenM-RNAlibs1-2018-04-18,Sample_79-G2-10-1-1-F,79-G2-10-1-1-F_S100_L003_R1_001.fastq.gz,79-G2-10-1-1-F_S100_L004_R1_001.fastq.gz,79-G2-10-1-1-F_S100_L005_R1_001.fastq.gz,79-G2-10-1-1-F_S100_L006_R1_001.fastq.gz,79-G2-10-1-1-F_S100_L007_R1_001.fastq.gz,79-G2-10-1-1-F_S100_L008_R1_001.fastq.gz
G2-10-1-3-F,/mnt/project/GenoSysFat/Rawdata/fastq/180511_J00146.A.Project_HolenM-RNAlibs1-2018-04-18,Sample_80-G2-10-1-3-F,80-G2-10-1-3-F_S33_L003_R1_001.fastq.gz,80-G2-10-1-3-F_S33_L004_R1_001.fastq.gz,80-G2-10-1-3-F_S33_L005_R1_001.fastq.gz,80-G2-10-1-3-F_S33_L006_R1_001.fastq.gz,80-G2-10-1-3-F_S33_L007_R1_001.fastq.gz,80-G2-10-1-3-F_S33_L008_R1_001.fastq.gz
G2-10-2-1-F,/mnt/project/GenoSysFat/Rawdata/fastq/180511_J00146.A.Project_HolenM-RNAlibs1-2018-04-18,Sample_81-G2-10-2-1-F,81-G2-10-2-1-F_S42_L003_R1_001.fastq.gz,81-G2-10-2-1-F_S42_L004_R1_001.fastq.gz,81-G2-10-2-1-F_S42_L005_R1_001.fastq.gz,81-G2-10-2-1-F_S42_L006_R1_001.fastq.gz,81-G2-10-2-1-F_S42_L007_R1_001.fastq.gz,81-G2-10-2-1-F_S42_L008_R1_001.fastq.gz
G2-10-2-3-F,/mnt/project/GenoSysFat/Rawdata/fastq/180511_J00146.A.Project_HolenM-RNAlibs1-2018-04-18,Sample_82-G2-10-2-3-F,82-G2-10-2-3-F_S51_L003_R1_001.fastq.gz,82-G2-10-2-3-F_S51_L004_R1_001.fastq.gz,82-G2-10-2-3-F_S51_L005_R1_001.fastq.gz,82-G2-10-2-3-F_S51_L006_R1_001.fastq.gz,82-G2-10-2-3-F_S51_L007_R1_001.fastq.gz,82-G2-10-2-3-F_S51_L008_R1_001.fastq.gz
G2-10-3-1-F,/mnt/project/GenoSysFat/Rawdata/fastq/180511_J00146.A.Project_HolenM-RNAlibs1-2018-04-18,Sample_83-G2-10-3-1-F,83-G2-10-3-1-F_S61_L003_R1_001.fastq.gz,83-G2-10-3-1-F_S61_L004_R1_001.fastq.gz,83-G2-10-3-1-F_S61_L005_R1_001.fastq.gz,83-G2-10-3-1-F_S61_L006_R1_001.fastq.gz,83-G2-10-3-1-F_S61_L007_R1_001.fastq.gz,83-G2-10-3-1-F_S61_L008_R1_001.fastq.gz
G2-10-3-3-F,/mnt/project/GenoSysFat/Rawdata/fastq/180511_J00146.A.Project_HolenM-RNAlibs1-2018-04-18,Sample_84-G2-10-3-3-F,84-G2-10-3-3-F_S71_L003_R1_001.fastq.gz,84-G2-10-3-3-F_S71_L004_R1_001.fastq.gz,84-G2-10-3-3-F_S71_L005_R1_001.fastq.gz,84-G2-10-3-3-F_S71_L006_R1_001.fastq.gz,84-G2-10-3-3-F_S71_L007_R1_001.fastq.gz,84-G2-10-3-3-F_S71_L008_R1_001.fastq.gz
G2-10-4-1-F,/mnt/project/GenoSysFat/Rawdata/fastq/180511_J00146.A.Project_HolenM-RNAlibs1-2018-04-18,Sample_85-G2-10-4-1-F,85-G2-10-4-1-F_S81_L003_R1_001.fastq.gz,85-G2-10-4-1-F_S81_L004_R1_001.fastq.gz,85-G2-10-4-1-F_S81_L005_R1_001.fastq.gz,85-G2-10-4-1-F_S81_L006_R1_001.fastq.gz,85-G2-10-4-1-F_S81_L007_R1_001.fastq.gz,85-G2-10-4-1-F_S81_L008_R1_001.fastq.gz
G2-10-4-3-F,/mnt/project/GenoSysFat/Rawdata/fastq/180511_J00146.A.Project_HolenM-RNAlibs1-2018-04-18,Sample_86-G2-10-4-3-F,86-G2-10-4-3-F_S91_L003_R1_001.fastq.gz,86-G2-10-4-3-F_S91_L004_R1_001.fastq.gz,86-G2-10-4-3-F_S91_L005_R1_001.fastq.gz,86-G2-10-4-3-F_S91_L006_R1_001.fastq.gz,86-G2-10-4-3-F_S91_L007_R1_001.fastq.gz,86-G2-10-4-3-F_S91_L008_R1_001.fastq.gz
G2-19-1-1-F,/mnt/project/GenoSysFat/Rawdata/fastq/180511_J00146.A.Project_HolenM-RNAlibs1-2018-04-18,Sample_87-G2-19-1-1-F,87-G2-19-1-1-F_S101_L003_R1_001.fastq.gz,87-G2-19-1-1-F_S101_L004_R1_001.fastq.gz,87-G2-19-1-1-F_S101_L005_R1_001.fastq.gz,87-G2-19-1-1-F_S101_L006_R1_001.fastq.gz,87-G2-19-1-1-F_S101_L007_R1_001.fastq.gz,87-G2-19-1-1-F_S101_L008_R1_001.fastq.gz
G2-19-1-3-F,/mnt/project/GenoSysFat/Rawdata/fastq/180511_J00146.A.Project_HolenM-RNAlibs1-2018-04-18,Sample_88-G2-19-1-3-F,88-G2-19-1-3-F_S34_L003_R1_001.fastq.gz,88-G2-19-1-3-F_S34_L004_R1_001.fastq.gz,88-G2-19-1-3-F_S34_L005_R1_001.fastq.gz,88-G2-19-1-3-F_S34_L006_R1_001.fastq.gz,88-G2-19-1-3-F_S34_L007_R1_001.fastq.gz,88-G2-19-1-3-F_S34_L008_R1_001.fastq.gz
G2-19-2-1-F,/mnt/project/GenoSysFat/Rawdata/fastq/180511_J00146.A.Project_HolenM-RNAlibs1-2018-04-18,Sample_89-G2-19-2-1-F,89-G2-19-2-1-F_S43_L003_R1_001.fastq.gz,89-G2-19-2-1-F_S43_L004_R1_001.fastq.gz,89-G2-19-2-1-F_S43_L005_R1_001.fastq.gz,89-G2-19-2-1-F_S43_L006_R1_001.fastq.gz,89-G2-19-2-1-F_S43_L007_R1_001.fastq.gz,89-G2-19-2-1-F_S43_L008_R1_001.fastq.gz
G2-19-2-3-F,/mnt/project/GenoSysFat/Rawdata/fastq/180511_J00146.A.Project_HolenM-RNAlibs1-2018-04-18,Sample_90-G2-19-2-3-F,90-G2-19-2-3-F_S52_L003_R1_001.fastq.gz,90-G2-19-2-3-F_S52_L004_R1_001.fastq.gz,90-G2-19-2-3-F_S52_L005_R1_001.fastq.gz,90-G2-19-2-3-F_S52_L006_R1_001.fastq.gz,90-G2-19-2-3-F_S52_L007_R1_001.fastq.gz,90-G2-19-2-3-F_S52_L008_R1_001.fastq.gz
G2-19-3-1-F,/mnt/project/GenoSysFat/Rawdata/fastq/180511_J00146.A.Project_HolenM-RNAlibs1-2018-04-18,Sample_91-G2-19-3-1-F,91-G2-19-3-1-F_S62_L003_R1_001.fastq.gz,91-G2-19-3-1-F_S62_L004_R1_001.fastq.gz,91-G2-19-3-1-F_S62_L005_R1_001.fastq.gz,91-G2-19-3-1-F_S62_L006_R1_001.fastq.gz,91-G2-19-3-1-F_S62_L007_R1_001.fastq.gz,91-G2-19-3-1-F_S62_L008_R1_001.fastq.gz
G2-19-3-3-F,/mnt/project/GenoSysFat/Rawdata/fastq/180511_J00146.A.Project_HolenM-RNAlibs1-2018-04-18,Sample_92-G2-19-3-3-F,92-G2-19-3-3-F_S72_L003_R1_001.fastq.gz,92-G2-19-3-3-F_S72_L004_R1_001.fastq.gz,92-G2-19-3-3-F_S72_L005_R1_001.fastq.gz,92-G2-19-3-3-F_S72_L006_R1_001.fastq.gz,92-G2-19-3-3-F_S72_L007_R1_001.fastq.gz,92-G2-19-3-3-F_S72_L008_R1_001.fastq.gz
G2-19-4-1-F,/mnt/project/GenoSysFat/Rawdata/fastq/180511_J00146.A.Project_HolenM-RNAlibs1-2018-04-18,Sample_93-G2-19-4-1-F,93-G2-19-4-1-F_S82_L003_R1_001.fastq.gz,93-G2-19-4-1-F_S82_L004_R1_001.fastq.gz,93-G2-19-4-1-F_S82_L005_R1_001.fastq.gz,93-G2-19-4-1-F_S82_L006_R1_001.fastq.gz,93-G2-19-4-1-F_S82_L007_R1_001.fastq.gz,93-G2-19-4-1-F_S82_L008_R1_001.fastq.gz
G2-19-4-3-F,/mnt/project/GenoSysFat/Rawdata/fastq/180511_J00146.A.Project_HolenM-RNAlibs1-2018-04-18,Sample_94-G2-19-4-3-F,94-G2-19-4-3-F_S92_L003_R1_001.fastq.gz,94-G2-19-4-3-F_S92_L004_R1_001.fastq.gz,94-G2-19-4-3-F_S92_L005_R1_001.fastq.gz,94-G2-19-4-3-F_S92_L006_R1_001.fastq.gz,94-G2-19-4-3-F_S92_L007_R1_001.fastq.gz,94-G2-19-4-3-F_S92_L008_R1_001.fastq.gz
G2-25-1-1-F,/mnt/project/GenoSysFat/Rawdata/fastq/180511_J00146.A.Project_HolenM-RNAlibs1-2018-04-18,Sample_95-G2-25-1-1-F,95-G2-25-1-1-F_S102_L003_R1_001.fastq.gz,95-G2-25-1-1-F_S102_L004_R1_001.fastq.gz,95-G2-25-1-1-F_S102_L005_R1_001.fastq.gz,95-G2-25-1-1-F_S102_L006_R1_001.fastq.gz,95-G2-25-1-1-F_S102_L007_R1_001.fastq.gz,95-G2-25-1-1-F_S102_L008_R1_001.fastq.gz
G2-25-1-3-F,/mnt/project/GenoSysFat/Rawdata/fastq/180511_J00146.A.Project_HolenM-RNAlibs1-2018-04-18,Sample_96-G2-25-1-3-F,96-G2-25-1-3-F_S35_L003_R1_001.fastq.gz,96-G2-25-1-3-F_S35_L004_R1_001.fastq.gz,96-G2-25-1-3-F_S35_L005_R1_001.fastq.gz,96-G2-25-1-3-F_S35_L006_R1_001.fastq.gz,96-G2-25-1-3-F_S35_L007_R1_001.fastq.gz,96-G2-25-1-3-F_S35_L008_R1_001.fastq.gz
G2-25-2-1-F,/mnt/project/GenoSysFat/Rawdata/fastq/180511_J00146.A.Project_HolenM-RNAlibs1-2018-04-18,Sample_97-G2-25-2-1-F,97-G2-25-2-1-F_S44_L003_R1_001.fastq.gz,97-G2-25-2-1-F_S44_L004_R1_001.fastq.gz,97-G2-25-2-1-F_S44_L005_R1_001.fastq.gz,97-G2-25-2-1-F_S44_L006_R1_001.fastq.gz,97-G2-25-2-1-F_S44_L007_R1_001.fastq.gz,97-G2-25-2-1-F_S44_L008_R1_001.fastq.gz
G2-25-2-3-F,/mnt/project/GenoSysFat/Rawdata/fastq/180511_J00146.A.Project_HolenM-RNAlibs1-2018-04-18,Sample_98-G2-25-2-3-F,98-G2-25-2-3-F_S53_L003_R1_001.fastq.gz,98-G2-25-2-3-F_S53_L004_R1_001.fastq.gz,98-G2-25-2-3-F_S53_L005_R1_001.fastq.gz,98-G2-25-2-3-F_S53_L006_R1_001.fastq.gz,98-G2-25-2-3-F_S53_L007_R1_001.fastq.gz,98-G2-25-2-3-F_S53_L008_R1_001.fastq.gz
G2-25-3-1-F,/mnt/project/GenoSysFat/Rawdata/fastq/180511_J00146.A.Project_HolenM-RNAlibs1-2018-04-18,Sample_99-G2-25-3-1-F,99-G2-25-3-1-F_S63_L003_R1_001.fastq.gz,99-G2-25-3-1-F_S63_L004_R1_001.fastq.gz,99-G2-25-3-1-F_S63_L005_R1_001.fastq.gz,99-G2-25-3-1-F_S63_L006_R1_001.fastq.gz,99-G2-25-3-1-F_S63_L007_R1_001.fastq.gz,99-G2-25-3-1-F_S63_L008_R1_001.fastq.gz
G2-25-3-3-F,/mnt/project/GenoSysFat/Rawdata/fastq/180511_J00146.A.Project_HolenM-RNAlibs1-2018-04-18,Sample_100-G2-25-3-3-F,100-G2-25-3-3-F_S73_L003_R1_001.fastq.gz,100-G2-25-3-3-F_S73_L004_R1_001.fastq.gz,100-G2-25-3-3-F_S73_L005_R1_001.fastq.gz,100-G2-25-3-3-F_S73_L006_R1_001.fastq.gz,100-G2-25-3-3-F_S73_L007_R1_001.fastq.gz,100-G2-25-3-3-F_S73_L008_R1_001.fastq.gz
G2-25-4-1-F,/mnt/project/GenoSysFat/Rawdata/fastq/180511_J00146.A.Project_HolenM-RNAlibs1-2018-04-18,Sample_101-G2-25-4-1-F,101-G2-25-4-1-F_S83_L003_R1_001.fastq.gz,101-G2-25-4-1-F_S83_L004_R1_001.fastq.gz,101-G2-25-4-1-F_S83_L005_R1_001.fastq.gz,101-G2-25-4-1-F_S83_L006_R1_001.fastq.gz,101-G2-25-4-1-F_S83_L007_R1_001.fastq.gz,101-G2-25-4-1-F_S83_L008_R1_001.fastq.gz
G2-25-4-3-F,/mnt/project/GenoSysFat/Rawdata/fastq/180511_J00146.A.Project_HolenM-RNAlibs1-2018-04-18,Sample_102-G2-25-4-3-F,102-G2-25-4-3-F_S93_L003_R1_001.fastq.gz,102-G2-25-4-3-F_S93_L004_R1_001.fastq.gz,102-G2-25-4-3-F_S93_L005_R1_001.fastq.gz,102-G2-25-4-3-F_S93_L006_R1_001.fastq.gz,102-G2-25-4-3-F_S93_L007_R1_001.fastq.gz,102-G2-25-4-3-F_S93_L008_R1_001.fastq.gz
