Sample Name,Directory,subdir,RawDataFile1,RawDataFile2
CFE-14-F2-S1,/mnt/project/GenoSysFat/Rawdata/fastq/180511_J00146.A.Project_HolenM-RNAlibs1-2018-04-18,Sample_1-CFE-14-F2-S1,1-CFE-14-F2-S1_S6_L001_R1_001.fastq.gz,1-CFE-14-F2-S1_S6_L002_R1_001.fastq.gz
CFE-14-F2-PC,/mnt/project/GenoSysFat/Rawdata/fastq/180511_J00146.A.Project_HolenM-RNAlibs1-2018-04-18,Sample_2-CFE-14-F2-PC,2-CFE-14-F2-PC_S10_L001_R1_001.fastq.gz,2-CFE-14-F2-PC_S10_L002_R1_001.fastq.gz
CFE-5-F1-PC,/mnt/project/GenoSysFat/Rawdata/fastq/180511_J00146.A.Project_HolenM-RNAlibs1-2018-04-18,Sample_3-CFE-5-F1-PC,3-CFE-5-F1-PC_S13_L001_R1_001.fastq.gz,3-CFE-5-F1-PC_S13_L002_R1_001.fastq.gz
CFE-5-F4-PC,/mnt/project/GenoSysFat/Rawdata/fastq/180511_J00146.A.Project_HolenM-RNAlibs1-2018-04-18,Sample_4-CFE-5-F4-PC,4-CFE-5-F4-PC_S16_L001_R1_001.fastq.gz,4-CFE-5-F4-PC_S16_L002_R1_001.fastq.gz
CFE-6-F2-PC,/mnt/project/GenoSysFat/Rawdata/fastq/180511_J00146.A.Project_HolenM-RNAlibs1-2018-04-18,Sample_5-CFE-6-F2-PC,5-CFE-6-F2-PC_S19_L001_R1_001.fastq.gz,5-CFE-6-F2-PC_S19_L002_R1_001.fastq.gz
CFE-6-F5-PC,/mnt/project/GenoSysFat/Rawdata/fastq/180511_J00146.A.Project_HolenM-RNAlibs1-2018-04-18,Sample_6-CFE-6-F5-PC,6-CFE-6-F5-PC_S22_L001_R1_001.fastq.gz,6-CFE-6-F5-PC_S22_L002_R1_001.fastq.gz
CFE-7-F1-PC,/mnt/project/GenoSysFat/Rawdata/fastq/180511_J00146.A.Project_HolenM-RNAlibs1-2018-04-18,Sample_7-CFE-7-F1-PC,7-CFE-7-F1-PC_S25_L001_R1_001.fastq.gz,7-CFE-7-F1-PC_S25_L002_R1_001.fastq.gz
CFE-7-F4-PC,/mnt/project/GenoSysFat/Rawdata/fastq/180511_J00146.A.Project_HolenM-RNAlibs1-2018-04-18,Sample_8-CFE-7-F4-PC,8-CFE-7-F4-PC_S3_L001_R1_001.fastq.gz,8-CFE-7-F4-PC_S3_L002_R1_001.fastq.gz
CFE-13-F1-PC,/mnt/project/GenoSysFat/Rawdata/fastq/180511_J00146.A.Project_HolenM-RNAlibs1-2018-04-18,Sample_9-CFE-13-F1-PC,9-CFE-13-F1-PC_S7_L001_R1_001.fastq.gz,9-CFE-13-F1-PC_S7_L002_R1_001.fastq.gz
CFE-13-F5-PC,/mnt/project/GenoSysFat/Rawdata/fastq/180511_J00146.A.Project_HolenM-RNAlibs1-2018-04-18,Sample_10-CFE-13-F5-PC,10-CFE-13-F5-PC_S11_L001_R1_001.fastq.gz,10-CFE-13-F5-PC_S11_L002_R1_001.fastq.gz
CFE-14-F3-PC,/mnt/project/GenoSysFat/Rawdata/fastq/180511_J00146.A.Project_HolenM-RNAlibs1-2018-04-18,Sample_11-CFE-14-F3-PC,11-CFE-14-F3-PC_S14_L001_R1_001.fastq.gz,11-CFE-14-F3-PC_S14_L002_R1_001.fastq.gz
CFE-14-F5-PC,/mnt/project/GenoSysFat/Rawdata/fastq/180511_J00146.A.Project_HolenM-RNAlibs1-2018-04-18,Sample_12-CFE-14-F5-PC,12-CFE-14-F5-PC_S17_L001_R1_001.fastq.gz,12-CFE-14-F5-PC_S17_L002_R1_001.fastq.gz
CFE-15-F2-PC,/mnt/project/GenoSysFat/Rawdata/fastq/180511_J00146.A.Project_HolenM-RNAlibs1-2018-04-18,Sample_13-CFE-15-F2-PC,13-CFE-15-F2-PC_S20_L001_R1_001.fastq.gz,13-CFE-15-F2-PC_S20_L002_R1_001.fastq.gz
CFE-15-F6-PC,/mnt/project/GenoSysFat/Rawdata/fastq/180511_J00146.A.Project_HolenM-RNAlibs1-2018-04-18,Sample_14-CFE-15-F6-PC,14-CFE-15-F6-PC_S23_L001_R1_001.fastq.gz,14-CFE-15-F6-PC_S23_L002_R1_001.fastq.gz
CFE-5-F1-S1,/mnt/project/GenoSysFat/Rawdata/fastq/180511_J00146.A.Project_HolenM-RNAlibs1-2018-04-18,Sample_15-CFE-5-F1-S1,15-CFE-5-F1-S1_S26_L001_R1_001.fastq.gz,15-CFE-5-F1-S1_S26_L002_R1_001.fastq.gz
CFE-5-F4-S1,/mnt/project/GenoSysFat/Rawdata/fastq/180511_J00146.A.Project_HolenM-RNAlibs1-2018-04-18,Sample_16-CFE-5-F4-S1,16-CFE-5-F4-S1_S1_L001_R1_001.fastq.gz,16-CFE-5-F4-S1_S1_L002_R1_001.fastq.gz
CFE-6-F2-S1,/mnt/project/GenoSysFat/Rawdata/fastq/180511_J00146.A.Project_HolenM-RNAlibs1-2018-04-18,Sample_17-CFE-6-F2-S1,17-CFE-6-F2-S1_S4_L001_R1_001.fastq.gz,17-CFE-6-F2-S1_S4_L002_R1_001.fastq.gz
CFE-6-F5-S1,/mnt/project/GenoSysFat/Rawdata/fastq/180511_J00146.A.Project_HolenM-RNAlibs1-2018-04-18,Sample_18-CFE-6-F5-S1,18-CFE-6-F5-S1_S8_L001_R1_001.fastq.gz,18-CFE-6-F5-S1_S8_L002_R1_001.fastq.gz
CFE-7-F1-S1,/mnt/project/GenoSysFat/Rawdata/fastq/180511_J00146.A.Project_HolenM-RNAlibs1-2018-04-18,Sample_19-CFE-7-F1-S1,19-CFE-7-F1-S1_S12_L001_R1_001.fastq.gz,19-CFE-7-F1-S1_S12_L002_R1_001.fastq.gz
CFE-7-F4-S1,/mnt/project/GenoSysFat/Rawdata/fastq/180511_J00146.A.Project_HolenM-RNAlibs1-2018-04-18,Sample_20-CFE-7-F4-S1,20-CFE-7-F4-S1_S15_L001_R1_001.fastq.gz,20-CFE-7-F4-S1_S15_L002_R1_001.fastq.gz
CFE-13-F1-S1,/mnt/project/GenoSysFat/Rawdata/fastq/180511_J00146.A.Project_HolenM-RNAlibs1-2018-04-18,Sample_21-CFE-13-F1-S1,21-CFE-13-F1-S1_S18_L001_R1_001.fastq.gz,21-CFE-13-F1-S1_S18_L002_R1_001.fastq.gz
CFE-13-F5-S1,/mnt/project/GenoSysFat/Rawdata/fastq/180511_J00146.A.Project_HolenM-RNAlibs1-2018-04-18,Sample_22-CFE-13-F5-S1,22-CFE-13-F5-S1_S21_L001_R1_001.fastq.gz,22-CFE-13-F5-S1_S21_L002_R1_001.fastq.gz
CFE-14-F3-S1,/mnt/project/GenoSysFat/Rawdata/fastq/180511_J00146.A.Project_HolenM-RNAlibs1-2018-04-18,Sample_23-CFE-14-F3-S1,23-CFE-14-F3-S1_S24_L001_R1_001.fastq.gz,23-CFE-14-F3-S1_S24_L002_R1_001.fastq.gz
CFE-14-F5-S1,/mnt/project/GenoSysFat/Rawdata/fastq/180511_J00146.A.Project_HolenM-RNAlibs1-2018-04-18,Sample_24-CFE-14-F5-S1,24-CFE-14-F5-S1_S2_L001_R1_001.fastq.gz,24-CFE-14-F5-S1_S2_L002_R1_001.fastq.gz
CFE-15-F6-S1,/mnt/project/GenoSysFat/Rawdata/fastq/180511_J00146.A.Project_HolenM-RNAlibs1-2018-04-18,Sample_25-CFE-15-F6-S1,25-CFE-15-F6-S1_S5_L001_R1_001.fastq.gz,25-CFE-15-F6-S1_S5_L002_R1_001.fastq.gz
CFE-15-F2-S1,/mnt/project/GenoSysFat/Rawdata/fastq/180511_J00146.A.Project_HolenM-RNAlibs1-2018-04-18,Sample_26-CFE-15-F2-S1,26-CFE-15-F2-S1_S9_L001_R1_001.fastq.gz,26-CFE-15-F2-S1_S9_L002_R1_001.fastq.gz
