Sample Name,Directory,subdir,RawDataFile1,RawDataFile2,RawDataFile3,RawDataFile4,RawDataFile5,RawDataFile6
ZF_L_1,/mnt/SeqData3/GenoSysFat/Rawdata/tissue_panels_2016,.,160504_D00132.B.Project_Sandve-RNAlibs3-2016-03-29/Sample_1-ZF-L-1/1-ZF-L-1_ATTACTCG-TATAGCCT_L002_R1_001.fastq.gz,160504_D00132.B.Project_Sandve-RNAlibs3-2016-03-29/Sample_1-ZF-L-1/1-ZF-L-1_ATTACTCG-TATAGCCT_L002_R2_001.fastq.gz,160504_D00132.B.Project_Sandve-RNAlibs3-2016-03-29/Sample_1-ZF-L-1/1-ZF-L-1_ATTACTCG-TATAGCCT_L003_R1_001.fastq.gz,160504_D00132.B.Project_Sandve-RNAlibs3-2016-03-29/Sample_1-ZF-L-1/1-ZF-L-1_ATTACTCG-TATAGCCT_L003_R2_001.fastq.gz,160524_D00132.A.Project_Sandve-RNAlibs3-2016-03-29/Sample_1-ZF-L-1/1-ZF-L-1_ATTACTCG-TATAGCCT_L003_R1_001.fastq.gz,160524_D00132.A.Project_Sandve-RNAlibs3-2016-03-29/Sample_1-ZF-L-1/1-ZF-L-1_ATTACTCG-TATAGCCT_L003_R2_001.fastq.gz
ZF_L_5,/mnt/SeqData3/GenoSysFat/Rawdata/tissue_panels_2016,.,160504_D00132.B.Project_Sandve-RNAlibs3-2016-03-29/Sample_2-ZF-L-5/2-ZF-L-5_ATTACTCG-ATAGAGGC_L002_R1_001.fastq.gz,160504_D00132.B.Project_Sandve-RNAlibs3-2016-03-29/Sample_2-ZF-L-5/2-ZF-L-5_ATTACTCG-ATAGAGGC_L002_R2_001.fastq.gz,160504_D00132.B.Project_Sandve-RNAlibs3-2016-03-29/Sample_2-ZF-L-5/2-ZF-L-5_ATTACTCG-ATAGAGGC_L003_R1_001.fastq.gz,160504_D00132.B.Project_Sandve-RNAlibs3-2016-03-29/Sample_2-ZF-L-5/2-ZF-L-5_ATTACTCG-ATAGAGGC_L003_R2_001.fastq.gz,160524_D00132.A.Project_Sandve-RNAlibs3-2016-03-29/Sample_2-ZF-L-5/2-ZF-L-5_ATTACTCG-ATAGAGGC_L003_R1_001.fastq.gz,160524_D00132.A.Project_Sandve-RNAlibs3-2016-03-29/Sample_2-ZF-L-5/2-ZF-L-5_ATTACTCG-ATAGAGGC_L003_R2_001.fastq.gz
ZF_L_3,/mnt/SeqData3/GenoSysFat/Rawdata/tissue_panels_2016,.,160504_D00132.B.Project_Sandve-RNAlibs3-2016-03-29/Sample_3-ZF-L-3/3-ZF-L-3_ATTACTCG-CCTATCCT_L002_R1_001.fastq.gz,160504_D00132.B.Project_Sandve-RNAlibs3-2016-03-29/Sample_3-ZF-L-3/3-ZF-L-3_ATTACTCG-CCTATCCT_L002_R2_001.fastq.gz,160504_D00132.B.Project_Sandve-RNAlibs3-2016-03-29/Sample_3-ZF-L-3/3-ZF-L-3_ATTACTCG-CCTATCCT_L003_R1_001.fastq.gz,160504_D00132.B.Project_Sandve-RNAlibs3-2016-03-29/Sample_3-ZF-L-3/3-ZF-L-3_ATTACTCG-CCTATCCT_L003_R2_001.fastq.gz,160524_D00132.A.Project_Sandve-RNAlibs3-2016-03-29/Sample_3-ZF-L-3/3-ZF-L-3_ATTACTCG-CCTATCCT_L003_R1_001.fastq.gz,160524_D00132.A.Project_Sandve-RNAlibs3-2016-03-29/Sample_3-ZF-L-3/3-ZF-L-3_ATTACTCG-CCTATCCT_L003_R2_001.fastq.gz
ZF_L_6,/mnt/SeqData3/GenoSysFat/Rawdata/tissue_panels_2016,.,160504_D00132.B.Project_Sandve-RNAlibs3-2016-03-29/Sample_4-ZF-L-6/4-ZF-L-6_ATTACTCG-GGCTCTGA_L002_R1_001.fastq.gz,160504_D00132.B.Project_Sandve-RNAlibs3-2016-03-29/Sample_4-ZF-L-6/4-ZF-L-6_ATTACTCG-GGCTCTGA_L002_R2_001.fastq.gz,160504_D00132.B.Project_Sandve-RNAlibs3-2016-03-29/Sample_4-ZF-L-6/4-ZF-L-6_ATTACTCG-GGCTCTGA_L003_R1_001.fastq.gz,160504_D00132.B.Project_Sandve-RNAlibs3-2016-03-29/Sample_4-ZF-L-6/4-ZF-L-6_ATTACTCG-GGCTCTGA_L003_R2_001.fastq.gz,160524_D00132.A.Project_Sandve-RNAlibs3-2016-03-29/Sample_4-ZF-L-6/4-ZF-L-6_ATTACTCG-GGCTCTGA_L003_R1_001.fastq.gz,160524_D00132.A.Project_Sandve-RNAlibs3-2016-03-29/Sample_4-ZF-L-6/4-ZF-L-6_ATTACTCG-GGCTCTGA_L003_R2_001.fastq.gz
ZF_Sk_1,/mnt/SeqData3/GenoSysFat/Rawdata/tissue_panels_2016,.,160504_D00132.B.Project_Sandve-RNAlibs3-2016-03-29/Sample_5-ZF-Sk-1/5-ZF-Sk-1_ATTACTCG-AGGCGAAG_L002_R1_001.fastq.gz,160504_D00132.B.Project_Sandve-RNAlibs3-2016-03-29/Sample_5-ZF-Sk-1/5-ZF-Sk-1_ATTACTCG-AGGCGAAG_L002_R2_001.fastq.gz,160504_D00132.B.Project_Sandve-RNAlibs3-2016-03-29/Sample_5-ZF-Sk-1/5-ZF-Sk-1_ATTACTCG-AGGCGAAG_L003_R1_001.fastq.gz,160504_D00132.B.Project_Sandve-RNAlibs3-2016-03-29/Sample_5-ZF-Sk-1/5-ZF-Sk-1_ATTACTCG-AGGCGAAG_L003_R2_001.fastq.gz,160524_D00132.A.Project_Sandve-RNAlibs3-2016-03-29/Sample_5-ZF-Sk-1/5-ZF-Sk-1_ATTACTCG-AGGCGAAG_L003_R1_001.fastq.gz,160524_D00132.A.Project_Sandve-RNAlibs3-2016-03-29/Sample_5-ZF-Sk-1/5-ZF-Sk-1_ATTACTCG-AGGCGAAG_L003_R2_001.fastq.gz
ZF_M_2,/mnt/SeqData3/GenoSysFat/Rawdata/tissue_panels_2016,.,160504_D00132.B.Project_Sandve-RNAlibs3-2016-03-29/Sample_6-ZF-M-2/6-ZF-M-2_ATTACTCG-TAATCTTA_L002_R1_001.fastq.gz,160504_D00132.B.Project_Sandve-RNAlibs3-2016-03-29/Sample_6-ZF-M-2/6-ZF-M-2_ATTACTCG-TAATCTTA_L002_R2_001.fastq.gz,160504_D00132.B.Project_Sandve-RNAlibs3-2016-03-29/Sample_6-ZF-M-2/6-ZF-M-2_ATTACTCG-TAATCTTA_L003_R1_001.fastq.gz,160504_D00132.B.Project_Sandve-RNAlibs3-2016-03-29/Sample_6-ZF-M-2/6-ZF-M-2_ATTACTCG-TAATCTTA_L003_R2_001.fastq.gz,160524_D00132.A.Project_Sandve-RNAlibs3-2016-03-29/Sample_6-ZF-M-2/6-ZF-M-2_ATTACTCG-TAATCTTA_L003_R1_001.fastq.gz,160524_D00132.A.Project_Sandve-RNAlibs3-2016-03-29/Sample_6-ZF-M-2/6-ZF-M-2_ATTACTCG-TAATCTTA_L003_R2_001.fastq.gz
ZF_H_1,/mnt/SeqData3/GenoSysFat/Rawdata/tissue_panels_2016,.,160504_D00132.B.Project_Sandve-RNAlibs3-2016-03-29/Sample_7-ZF-H-1/7-ZF-H-1_ATTACTCG-CAGGACGT_L002_R1_001.fastq.gz,160504_D00132.B.Project_Sandve-RNAlibs3-2016-03-29/Sample_7-ZF-H-1/7-ZF-H-1_ATTACTCG-CAGGACGT_L002_R2_001.fastq.gz,160504_D00132.B.Project_Sandve-RNAlibs3-2016-03-29/Sample_7-ZF-H-1/7-ZF-H-1_ATTACTCG-CAGGACGT_L003_R1_001.fastq.gz,160504_D00132.B.Project_Sandve-RNAlibs3-2016-03-29/Sample_7-ZF-H-1/7-ZF-H-1_ATTACTCG-CAGGACGT_L003_R2_001.fastq.gz,160524_D00132.A.Project_Sandve-RNAlibs3-2016-03-29/Sample_7-ZF-H-1/7-ZF-H-1_ATTACTCG-CAGGACGT_L003_R1_001.fastq.gz,160524_D00132.A.Project_Sandve-RNAlibs3-2016-03-29/Sample_7-ZF-H-1/7-ZF-H-1_ATTACTCG-CAGGACGT_L003_R2_001.fastq.gz
ZF_G_1,/mnt/SeqData3/GenoSysFat/Rawdata/tissue_panels_2016,.,160504_D00132.B.Project_Sandve-RNAlibs3-2016-03-29/Sample_8-ZF-G-1/8-ZF-G-1_ATTACTCG-GTACTGAC_L002_R1_001.fastq.gz,160504_D00132.B.Project_Sandve-RNAlibs3-2016-03-29/Sample_8-ZF-G-1/8-ZF-G-1_ATTACTCG-GTACTGAC_L002_R2_001.fastq.gz,160504_D00132.B.Project_Sandve-RNAlibs3-2016-03-29/Sample_8-ZF-G-1/8-ZF-G-1_ATTACTCG-GTACTGAC_L003_R1_001.fastq.gz,160504_D00132.B.Project_Sandve-RNAlibs3-2016-03-29/Sample_8-ZF-G-1/8-ZF-G-1_ATTACTCG-GTACTGAC_L003_R2_001.fastq.gz,160524_D00132.A.Project_Sandve-RNAlibs3-2016-03-29/Sample_8-ZF-G-1/8-ZF-G-1_ATTACTCG-GTACTGAC_L003_R1_001.fastq.gz,160524_D00132.A.Project_Sandve-RNAlibs3-2016-03-29/Sample_8-ZF-G-1/8-ZF-G-1_ATTACTCG-GTACTGAC_L003_R2_001.fastq.gz
ZF_Gi_2,/mnt/SeqData3/GenoSysFat/Rawdata/tissue_panels_2016,.,160504_D00132.B.Project_Sandve-RNAlibs3-2016-03-29/Sample_9-ZF-Gi-2/9-ZF-Gi-2_TCCGGAGA-TATAGCCT_L002_R1_001.fastq.gz,160504_D00132.B.Project_Sandve-RNAlibs3-2016-03-29/Sample_9-ZF-Gi-2/9-ZF-Gi-2_TCCGGAGA-TATAGCCT_L002_R2_001.fastq.gz,160504_D00132.B.Project_Sandve-RNAlibs3-2016-03-29/Sample_9-ZF-Gi-2/9-ZF-Gi-2_TCCGGAGA-TATAGCCT_L003_R1_001.fastq.gz,160504_D00132.B.Project_Sandve-RNAlibs3-2016-03-29/Sample_9-ZF-Gi-2/9-ZF-Gi-2_TCCGGAGA-TATAGCCT_L003_R2_001.fastq.gz,160524_D00132.A.Project_Sandve-RNAlibs3-2016-03-29/Sample_9-ZF-Gi-2/9-ZF-Gi-2_TCCGGAGA-TATAGCCT_L003_R1_001.fastq.gz,160524_D00132.A.Project_Sandve-RNAlibs3-2016-03-29/Sample_9-ZF-Gi-2/9-ZF-Gi-2_TCCGGAGA-TATAGCCT_L003_R2_001.fastq.gz
ZF_E_2,/mnt/SeqData3/GenoSysFat/Rawdata/tissue_panels_2016,.,160504_D00132.B.Project_Sandve-RNAlibs3-2016-03-29/Sample_10-ZF-E-2/10-ZF-E-2_TCCGGAGA-ATAGAGGC_L002_R1_001.fastq.gz,160504_D00132.B.Project_Sandve-RNAlibs3-2016-03-29/Sample_10-ZF-E-2/10-ZF-E-2_TCCGGAGA-ATAGAGGC_L002_R2_001.fastq.gz,160504_D00132.B.Project_Sandve-RNAlibs3-2016-03-29/Sample_10-ZF-E-2/10-ZF-E-2_TCCGGAGA-ATAGAGGC_L003_R1_001.fastq.gz,160504_D00132.B.Project_Sandve-RNAlibs3-2016-03-29/Sample_10-ZF-E-2/10-ZF-E-2_TCCGGAGA-ATAGAGGC_L003_R2_001.fastq.gz,160524_D00132.A.Project_Sandve-RNAlibs3-2016-03-29/Sample_10-ZF-E-2/10-ZF-E-2_TCCGGAGA-ATAGAGGC_L003_R1_001.fastq.gz,160524_D00132.A.Project_Sandve-RNAlibs3-2016-03-29/Sample_10-ZF-E-2/10-ZF-E-2_TCCGGAGA-ATAGAGGC_L003_R2_001.fastq.gz
ZF_B_1,/mnt/SeqData3/GenoSysFat/Rawdata/tissue_panels_2016,.,160504_D00132.B.Project_Sandve-RNAlibs3-2016-03-29/Sample_11-ZF-B-1/11-ZF-B-1_TCCGGAGA-CCTATCCT_L002_R1_001.fastq.gz,160504_D00132.B.Project_Sandve-RNAlibs3-2016-03-29/Sample_11-ZF-B-1/11-ZF-B-1_TCCGGAGA-CCTATCCT_L002_R2_001.fastq.gz,160504_D00132.B.Project_Sandve-RNAlibs3-2016-03-29/Sample_11-ZF-B-1/11-ZF-B-1_TCCGGAGA-CCTATCCT_L003_R1_001.fastq.gz,160504_D00132.B.Project_Sandve-RNAlibs3-2016-03-29/Sample_11-ZF-B-1/11-ZF-B-1_TCCGGAGA-CCTATCCT_L003_R2_001.fastq.gz,160524_D00132.A.Project_Sandve-RNAlibs3-2016-03-29/Sample_11-ZF-B-1/11-ZF-B-1_TCCGGAGA-CCTATCCT_L003_R1_001.fastq.gz,160524_D00132.A.Project_Sandve-RNAlibs3-2016-03-29/Sample_11-ZF-B-1/11-ZF-B-1_TCCGGAGA-CCTATCCT_L003_R2_001.fastq.gz
Med_L_1,/mnt/SeqData3/GenoSysFat/Rawdata/tissue_panels_2016,.,160504_D00132.B.Project_Sandve-RNAlibs3-2016-03-29/Sample_12-Med-L-1/12-Med-L-1_TCCGGAGA-GGCTCTGA_L002_R1_001.fastq.gz,160504_D00132.B.Project_Sandve-RNAlibs3-2016-03-29/Sample_12-Med-L-1/12-Med-L-1_TCCGGAGA-GGCTCTGA_L002_R2_001.fastq.gz,160504_D00132.B.Project_Sandve-RNAlibs3-2016-03-29/Sample_12-Med-L-1/12-Med-L-1_TCCGGAGA-GGCTCTGA_L003_R1_001.fastq.gz,160504_D00132.B.Project_Sandve-RNAlibs3-2016-03-29/Sample_12-Med-L-1/12-Med-L-1_TCCGGAGA-GGCTCTGA_L003_R2_001.fastq.gz,160524_D00132.A.Project_Sandve-RNAlibs3-2016-03-29/Sample_12-Med-L-1/12-Med-L-1_TCCGGAGA-GGCTCTGA_L003_R1_001.fastq.gz,160524_D00132.A.Project_Sandve-RNAlibs3-2016-03-29/Sample_12-Med-L-1/12-Med-L-1_TCCGGAGA-GGCTCTGA_L003_R2_001.fastq.gz
Med_L_2,/mnt/SeqData3/GenoSysFat/Rawdata/tissue_panels_2016,.,160504_D00132.B.Project_Sandve-RNAlibs3-2016-03-29/Sample_13-Med-L-2/13-Med-L-2_TCCGGAGA-AGGCGAAG_L002_R1_001.fastq.gz,160504_D00132.B.Project_Sandve-RNAlibs3-2016-03-29/Sample_13-Med-L-2/13-Med-L-2_TCCGGAGA-AGGCGAAG_L002_R2_001.fastq.gz,160504_D00132.B.Project_Sandve-RNAlibs3-2016-03-29/Sample_13-Med-L-2/13-Med-L-2_TCCGGAGA-AGGCGAAG_L003_R1_001.fastq.gz,160504_D00132.B.Project_Sandve-RNAlibs3-2016-03-29/Sample_13-Med-L-2/13-Med-L-2_TCCGGAGA-AGGCGAAG_L003_R2_001.fastq.gz,160524_D00132.A.Project_Sandve-RNAlibs3-2016-03-29/Sample_13-Med-L-2/13-Med-L-2_TCCGGAGA-AGGCGAAG_L003_R1_001.fastq.gz,160524_D00132.A.Project_Sandve-RNAlibs3-2016-03-29/Sample_13-Med-L-2/13-Med-L-2_TCCGGAGA-AGGCGAAG_L003_R2_001.fastq.gz
Med_L_3,/mnt/SeqData3/GenoSysFat/Rawdata/tissue_panels_2016,.,160504_D00132.B.Project_Sandve-RNAlibs3-2016-03-29/Sample_14-Med-L-3/14-Med-L-3_TCCGGAGA-TAATCTTA_L002_R1_001.fastq.gz,160504_D00132.B.Project_Sandve-RNAlibs3-2016-03-29/Sample_14-Med-L-3/14-Med-L-3_TCCGGAGA-TAATCTTA_L002_R2_001.fastq.gz,160504_D00132.B.Project_Sandve-RNAlibs3-2016-03-29/Sample_14-Med-L-3/14-Med-L-3_TCCGGAGA-TAATCTTA_L003_R1_001.fastq.gz,160504_D00132.B.Project_Sandve-RNAlibs3-2016-03-29/Sample_14-Med-L-3/14-Med-L-3_TCCGGAGA-TAATCTTA_L003_R2_001.fastq.gz,160524_D00132.A.Project_Sandve-RNAlibs3-2016-03-29/Sample_14-Med-L-3/14-Med-L-3_TCCGGAGA-TAATCTTA_L003_R1_001.fastq.gz,160524_D00132.A.Project_Sandve-RNAlibs3-2016-03-29/Sample_14-Med-L-3/14-Med-L-3_TCCGGAGA-TAATCTTA_L003_R2_001.fastq.gz
Med_L_4,/mnt/SeqData3/GenoSysFat/Rawdata/tissue_panels_2016,.,160504_D00132.B.Project_Sandve-RNAlibs3-2016-03-29/Sample_15-Med-L-4/15-Med-L-4_TCCGGAGA-CAGGACGT_L002_R1_001.fastq.gz,160504_D00132.B.Project_Sandve-RNAlibs3-2016-03-29/Sample_15-Med-L-4/15-Med-L-4_TCCGGAGA-CAGGACGT_L002_R2_001.fastq.gz,160504_D00132.B.Project_Sandve-RNAlibs3-2016-03-29/Sample_15-Med-L-4/15-Med-L-4_TCCGGAGA-CAGGACGT_L003_R1_001.fastq.gz,160504_D00132.B.Project_Sandve-RNAlibs3-2016-03-29/Sample_15-Med-L-4/15-Med-L-4_TCCGGAGA-CAGGACGT_L003_R2_001.fastq.gz,160524_D00132.A.Project_Sandve-RNAlibs3-2016-03-29/Sample_15-Med-L-4/15-Med-L-4_TCCGGAGA-CAGGACGT_L003_R1_001.fastq.gz,160524_D00132.A.Project_Sandve-RNAlibs3-2016-03-29/Sample_15-Med-L-4/15-Med-L-4_TCCGGAGA-CAGGACGT_L003_R2_001.fastq.gz
Med_Sk_1,/mnt/SeqData3/GenoSysFat/Rawdata/tissue_panels_2016,.,160504_D00132.B.Project_Sandve-RNAlibs3-2016-03-29/Sample_16-Med-Sk-1/16-Med-Sk-1_TCCGGAGA-GTACTGAC_L002_R1_001.fastq.gz,160504_D00132.B.Project_Sandve-RNAlibs3-2016-03-29/Sample_16-Med-Sk-1/16-Med-Sk-1_TCCGGAGA-GTACTGAC_L002_R2_001.fastq.gz,160504_D00132.B.Project_Sandve-RNAlibs3-2016-03-29/Sample_16-Med-Sk-1/16-Med-Sk-1_TCCGGAGA-GTACTGAC_L003_R1_001.fastq.gz,160504_D00132.B.Project_Sandve-RNAlibs3-2016-03-29/Sample_16-Med-Sk-1/16-Med-Sk-1_TCCGGAGA-GTACTGAC_L003_R2_001.fastq.gz,160524_D00132.A.Project_Sandve-RNAlibs3-2016-03-29/Sample_16-Med-Sk-1/16-Med-Sk-1_TCCGGAGA-GTACTGAC_L003_R1_001.fastq.gz,160524_D00132.A.Project_Sandve-RNAlibs3-2016-03-29/Sample_16-Med-Sk-1/16-Med-Sk-1_TCCGGAGA-GTACTGAC_L003_R2_001.fastq.gz
Med_M_2,/mnt/SeqData3/GenoSysFat/Rawdata/tissue_panels_2016,.,160504_D00132.B.Project_Sandve-RNAlibs3-2016-03-29/Sample_17-Med-M-2/17-Med-M-2_CGCTCATT-TATAGCCT_L002_R1_001.fastq.gz,160504_D00132.B.Project_Sandve-RNAlibs3-2016-03-29/Sample_17-Med-M-2/17-Med-M-2_CGCTCATT-TATAGCCT_L002_R2_001.fastq.gz,160504_D00132.B.Project_Sandve-RNAlibs3-2016-03-29/Sample_17-Med-M-2/17-Med-M-2_CGCTCATT-TATAGCCT_L003_R1_001.fastq.gz,160504_D00132.B.Project_Sandve-RNAlibs3-2016-03-29/Sample_17-Med-M-2/17-Med-M-2_CGCTCATT-TATAGCCT_L003_R2_001.fastq.gz,160524_D00132.A.Project_Sandve-RNAlibs3-2016-03-29/Sample_17-Med-M-2/17-Med-M-2_CGCTCATT-TATAGCCT_L003_R1_001.fastq.gz,160524_D00132.A.Project_Sandve-RNAlibs3-2016-03-29/Sample_17-Med-M-2/17-Med-M-2_CGCTCATT-TATAGCCT_L003_R2_001.fastq.gz
Med_H_3,/mnt/SeqData3/GenoSysFat/Rawdata/tissue_panels_2016,.,160504_D00132.B.Project_Sandve-RNAlibs3-2016-03-29/Sample_18-Med-H-3/18-Med-H-3_CGCTCATT-ATAGAGGC_L002_R1_001.fastq.gz,160504_D00132.B.Project_Sandve-RNAlibs3-2016-03-29/Sample_18-Med-H-3/18-Med-H-3_CGCTCATT-ATAGAGGC_L002_R2_001.fastq.gz,160504_D00132.B.Project_Sandve-RNAlibs3-2016-03-29/Sample_18-Med-H-3/18-Med-H-3_CGCTCATT-ATAGAGGC_L003_R1_001.fastq.gz,160504_D00132.B.Project_Sandve-RNAlibs3-2016-03-29/Sample_18-Med-H-3/18-Med-H-3_CGCTCATT-ATAGAGGC_L003_R2_001.fastq.gz,160524_D00132.A.Project_Sandve-RNAlibs3-2016-03-29/Sample_18-Med-H-3/18-Med-H-3_CGCTCATT-ATAGAGGC_L003_R1_001.fastq.gz,160524_D00132.A.Project_Sandve-RNAlibs3-2016-03-29/Sample_18-Med-H-3/18-Med-H-3_CGCTCATT-ATAGAGGC_L003_R2_001.fastq.gz
Med_G_1,/mnt/SeqData3/GenoSysFat/Rawdata/tissue_panels_2016,.,160504_D00132.B.Project_Sandve-RNAlibs3-2016-03-29/Sample_19-Med-G-1/19-Med-G-1_CGCTCATT-CCTATCCT_L002_R1_001.fastq.gz,160504_D00132.B.Project_Sandve-RNAlibs3-2016-03-29/Sample_19-Med-G-1/19-Med-G-1_CGCTCATT-CCTATCCT_L002_R2_001.fastq.gz,160504_D00132.B.Project_Sandve-RNAlibs3-2016-03-29/Sample_19-Med-G-1/19-Med-G-1_CGCTCATT-CCTATCCT_L003_R1_001.fastq.gz,160504_D00132.B.Project_Sandve-RNAlibs3-2016-03-29/Sample_19-Med-G-1/19-Med-G-1_CGCTCATT-CCTATCCT_L003_R2_001.fastq.gz,160524_D00132.A.Project_Sandve-RNAlibs3-2016-03-29/Sample_19-Med-G-1/19-Med-G-1_CGCTCATT-CCTATCCT_L003_R1_001.fastq.gz,160524_D00132.A.Project_Sandve-RNAlibs3-2016-03-29/Sample_19-Med-G-1/19-Med-G-1_CGCTCATT-CCTATCCT_L003_R2_001.fastq.gz
Med_Gi_1,/mnt/SeqData3/GenoSysFat/Rawdata/tissue_panels_2016,.,160504_D00132.B.Project_Sandve-RNAlibs3-2016-03-29/Sample_20-Med-Gi-1/20-Med-Gi-1_CGCTCATT-GGCTCTGA_L002_R1_001.fastq.gz,160504_D00132.B.Project_Sandve-RNAlibs3-2016-03-29/Sample_20-Med-Gi-1/20-Med-Gi-1_CGCTCATT-GGCTCTGA_L002_R2_001.fastq.gz,160504_D00132.B.Project_Sandve-RNAlibs3-2016-03-29/Sample_20-Med-Gi-1/20-Med-Gi-1_CGCTCATT-GGCTCTGA_L003_R1_001.fastq.gz,160504_D00132.B.Project_Sandve-RNAlibs3-2016-03-29/Sample_20-Med-Gi-1/20-Med-Gi-1_CGCTCATT-GGCTCTGA_L003_R2_001.fastq.gz,160524_D00132.A.Project_Sandve-RNAlibs3-2016-03-29/Sample_20-Med-Gi-1/20-Med-Gi-1_CGCTCATT-GGCTCTGA_L003_R1_001.fastq.gz,160524_D00132.A.Project_Sandve-RNAlibs3-2016-03-29/Sample_20-Med-Gi-1/20-Med-Gi-1_CGCTCATT-GGCTCTGA_L003_R2_001.fastq.gz
Med_E_1,/mnt/SeqData3/GenoSysFat/Rawdata/tissue_panels_2016,.,160504_D00132.B.Project_Sandve-RNAlibs3-2016-03-29/Sample_21-Med-E-1/21-Med-E-1_CGCTCATT-AGGCGAAG_L002_R1_001.fastq.gz,160504_D00132.B.Project_Sandve-RNAlibs3-2016-03-29/Sample_21-Med-E-1/21-Med-E-1_CGCTCATT-AGGCGAAG_L002_R2_001.fastq.gz,160504_D00132.B.Project_Sandve-RNAlibs3-2016-03-29/Sample_21-Med-E-1/21-Med-E-1_CGCTCATT-AGGCGAAG_L003_R1_001.fastq.gz,160504_D00132.B.Project_Sandve-RNAlibs3-2016-03-29/Sample_21-Med-E-1/21-Med-E-1_CGCTCATT-AGGCGAAG_L003_R2_001.fastq.gz,160524_D00132.A.Project_Sandve-RNAlibs3-2016-03-29/Sample_21-Med-E-1/21-Med-E-1_CGCTCATT-AGGCGAAG_L003_R1_001.fastq.gz,160524_D00132.A.Project_Sandve-RNAlibs3-2016-03-29/Sample_21-Med-E-1/21-Med-E-1_CGCTCATT-AGGCGAAG_L003_R2_001.fastq.gz
Med_B_2,/mnt/SeqData3/GenoSysFat/Rawdata/tissue_panels_2016,.,160504_D00132.B.Project_Sandve-RNAlibs3-2016-03-29/Sample_22-Med-B-2/22-Med-B-2_CGCTCATT-TAATCTTA_L002_R1_001.fastq.gz,160504_D00132.B.Project_Sandve-RNAlibs3-2016-03-29/Sample_22-Med-B-2/22-Med-B-2_CGCTCATT-TAATCTTA_L002_R2_001.fastq.gz,160504_D00132.B.Project_Sandve-RNAlibs3-2016-03-29/Sample_22-Med-B-2/22-Med-B-2_CGCTCATT-TAATCTTA_L003_R1_001.fastq.gz,160504_D00132.B.Project_Sandve-RNAlibs3-2016-03-29/Sample_22-Med-B-2/22-Med-B-2_CGCTCATT-TAATCTTA_L003_R2_001.fastq.gz,160524_D00132.A.Project_Sandve-RNAlibs3-2016-03-29/Sample_22-Med-B-2/22-Med-B-2_CGCTCATT-TAATCTTA_L003_R1_001.fastq.gz,160524_D00132.A.Project_Sandve-RNAlibs3-2016-03-29/Sample_22-Med-B-2/22-Med-B-2_CGCTCATT-TAATCTTA_L003_R2_001.fastq.gz
RT_L_1,/mnt/SeqData3/GenoSysFat/Rawdata/tissue_panels_2016,.,160504_D00132.B.Project_Sandve-RNAlibs3-2016-03-29/Sample_23-RT-L-1/23-RT-L-1_CGCTCATT-CAGGACGT_L002_R1_001.fastq.gz,160504_D00132.B.Project_Sandve-RNAlibs3-2016-03-29/Sample_23-RT-L-1/23-RT-L-1_CGCTCATT-CAGGACGT_L002_R2_001.fastq.gz,160504_D00132.B.Project_Sandve-RNAlibs3-2016-03-29/Sample_23-RT-L-1/23-RT-L-1_CGCTCATT-CAGGACGT_L003_R1_001.fastq.gz,160504_D00132.B.Project_Sandve-RNAlibs3-2016-03-29/Sample_23-RT-L-1/23-RT-L-1_CGCTCATT-CAGGACGT_L003_R2_001.fastq.gz,160524_D00132.A.Project_Sandve-RNAlibs3-2016-03-29/Sample_23-RT-L-1/23-RT-L-1_CGCTCATT-CAGGACGT_L003_R1_001.fastq.gz,160524_D00132.A.Project_Sandve-RNAlibs3-2016-03-29/Sample_23-RT-L-1/23-RT-L-1_CGCTCATT-CAGGACGT_L003_R2_001.fastq.gz
RT_L_2,/mnt/SeqData3/GenoSysFat/Rawdata/tissue_panels_2016,.,160504_D00132.B.Project_Sandve-RNAlibs3-2016-03-29/Sample_24-24-RT-L-2/24-24-RT-L-2_CGCTCATT-GTACTGAC_L002_R1_001.fastq.gz,160504_D00132.B.Project_Sandve-RNAlibs3-2016-03-29/Sample_24-24-RT-L-2/24-24-RT-L-2_CGCTCATT-GTACTGAC_L002_R2_001.fastq.gz,160504_D00132.B.Project_Sandve-RNAlibs3-2016-03-29/Sample_24-24-RT-L-2/24-24-RT-L-2_CGCTCATT-GTACTGAC_L003_R1_001.fastq.gz,160504_D00132.B.Project_Sandve-RNAlibs3-2016-03-29/Sample_24-24-RT-L-2/24-24-RT-L-2_CGCTCATT-GTACTGAC_L003_R2_001.fastq.gz,160524_D00132.A.Project_Sandve-RNAlibs3-2016-03-29/Sample_24-24-RT-L-2/24-24-RT-L-2_CGCTCATT-GTACTGAC_L003_R1_001.fastq.gz,160524_D00132.A.Project_Sandve-RNAlibs3-2016-03-29/Sample_24-24-RT-L-2/24-24-RT-L-2_CGCTCATT-GTACTGAC_L003_R2_001.fastq.gz
RT_L_3,/mnt/SeqData3/GenoSysFat/Rawdata/tissue_panels_2016,.,160504_D00132.B.Project_Sandve-RNAlibs3-2016-03-29/Sample_25-RT-L-3/25-RT-L-3_GAGATTCC-TATAGCCT_L002_R1_001.fastq.gz,160504_D00132.B.Project_Sandve-RNAlibs3-2016-03-29/Sample_25-RT-L-3/25-RT-L-3_GAGATTCC-TATAGCCT_L002_R2_001.fastq.gz,160504_D00132.B.Project_Sandve-RNAlibs3-2016-03-29/Sample_25-RT-L-3/25-RT-L-3_GAGATTCC-TATAGCCT_L003_R1_001.fastq.gz,160504_D00132.B.Project_Sandve-RNAlibs3-2016-03-29/Sample_25-RT-L-3/25-RT-L-3_GAGATTCC-TATAGCCT_L003_R2_001.fastq.gz,160524_D00132.A.Project_Sandve-RNAlibs3-2016-03-29/Sample_25-RT-L-3/25-RT-L-3_GAGATTCC-TATAGCCT_L003_R1_001.fastq.gz,160524_D00132.A.Project_Sandve-RNAlibs3-2016-03-29/Sample_25-RT-L-3/25-RT-L-3_GAGATTCC-TATAGCCT_L003_R2_001.fastq.gz
RT_Sk_1,/mnt/SeqData3/GenoSysFat/Rawdata/tissue_panels_2016,.,160504_D00132.B.Project_Sandve-RNAlibs3-2016-03-29/Sample_26-RT-Sk-1/26-RT-Sk-1_GAGATTCC-ATAGAGGC_L002_R1_001.fastq.gz,160504_D00132.B.Project_Sandve-RNAlibs3-2016-03-29/Sample_26-RT-Sk-1/26-RT-Sk-1_GAGATTCC-ATAGAGGC_L002_R2_001.fastq.gz,160504_D00132.B.Project_Sandve-RNAlibs3-2016-03-29/Sample_26-RT-Sk-1/26-RT-Sk-1_GAGATTCC-ATAGAGGC_L003_R1_001.fastq.gz,160504_D00132.B.Project_Sandve-RNAlibs3-2016-03-29/Sample_26-RT-Sk-1/26-RT-Sk-1_GAGATTCC-ATAGAGGC_L003_R2_001.fastq.gz,160524_D00132.A.Project_Sandve-RNAlibs3-2016-03-29/Sample_26-RT-Sk-1/26-RT-Sk-1_GAGATTCC-ATAGAGGC_L003_R1_001.fastq.gz,160524_D00132.A.Project_Sandve-RNAlibs3-2016-03-29/Sample_26-RT-Sk-1/26-RT-Sk-1_GAGATTCC-ATAGAGGC_L003_R2_001.fastq.gz
RT_M_1,/mnt/SeqData3/GenoSysFat/Rawdata/tissue_panels_2016,.,160504_D00132.B.Project_Sandve-RNAlibs3-2016-03-29/Sample_27-RT-M-1/27-RT-M-1_GAGATTCC-CCTATCCT_L002_R1_001.fastq.gz,160504_D00132.B.Project_Sandve-RNAlibs3-2016-03-29/Sample_27-RT-M-1/27-RT-M-1_GAGATTCC-CCTATCCT_L002_R2_001.fastq.gz,160504_D00132.B.Project_Sandve-RNAlibs3-2016-03-29/Sample_27-RT-M-1/27-RT-M-1_GAGATTCC-CCTATCCT_L003_R1_001.fastq.gz,160504_D00132.B.Project_Sandve-RNAlibs3-2016-03-29/Sample_27-RT-M-1/27-RT-M-1_GAGATTCC-CCTATCCT_L003_R2_001.fastq.gz,160524_D00132.A.Project_Sandve-RNAlibs3-2016-03-29/Sample_27-RT-M-1/27-RT-M-1_GAGATTCC-CCTATCCT_L003_R1_001.fastq.gz,160524_D00132.A.Project_Sandve-RNAlibs3-2016-03-29/Sample_27-RT-M-1/27-RT-M-1_GAGATTCC-CCTATCCT_L003_R2_001.fastq.gz
RT_H_1,/mnt/SeqData3/GenoSysFat/Rawdata/tissue_panels_2016,.,160504_D00132.B.Project_Sandve-RNAlibs3-2016-03-29/Sample_28-RT-H-1/28-RT-H-1_GAGATTCC-GGCTCTGA_L002_R1_001.fastq.gz,160504_D00132.B.Project_Sandve-RNAlibs3-2016-03-29/Sample_28-RT-H-1/28-RT-H-1_GAGATTCC-GGCTCTGA_L002_R2_001.fastq.gz,160504_D00132.B.Project_Sandve-RNAlibs3-2016-03-29/Sample_28-RT-H-1/28-RT-H-1_GAGATTCC-GGCTCTGA_L003_R1_001.fastq.gz,160504_D00132.B.Project_Sandve-RNAlibs3-2016-03-29/Sample_28-RT-H-1/28-RT-H-1_GAGATTCC-GGCTCTGA_L003_R2_001.fastq.gz,160524_D00132.A.Project_Sandve-RNAlibs3-2016-03-29/Sample_28-RT-H-1/28-RT-H-1_GAGATTCC-GGCTCTGA_L003_R1_001.fastq.gz,160524_D00132.A.Project_Sandve-RNAlibs3-2016-03-29/Sample_28-RT-H-1/28-RT-H-1_GAGATTCC-GGCTCTGA_L003_R2_001.fastq.gz
RT_G_1,/mnt/SeqData3/GenoSysFat/Rawdata/tissue_panels_2016,.,160504_D00132.B.Project_Sandve-RNAlibs3-2016-03-29/Sample_29-RT-G-1/29-RT-G-1_GAGATTCC-AGGCGAAG_L002_R1_001.fastq.gz,160504_D00132.B.Project_Sandve-RNAlibs3-2016-03-29/Sample_29-RT-G-1/29-RT-G-1_GAGATTCC-AGGCGAAG_L002_R2_001.fastq.gz,160504_D00132.B.Project_Sandve-RNAlibs3-2016-03-29/Sample_29-RT-G-1/29-RT-G-1_GAGATTCC-AGGCGAAG_L003_R1_001.fastq.gz,160504_D00132.B.Project_Sandve-RNAlibs3-2016-03-29/Sample_29-RT-G-1/29-RT-G-1_GAGATTCC-AGGCGAAG_L003_R2_001.fastq.gz,160524_D00132.A.Project_Sandve-RNAlibs3-2016-03-29/Sample_29-RT-G-1/29-RT-G-1_GAGATTCC-AGGCGAAG_L003_R1_001.fastq.gz,160524_D00132.A.Project_Sandve-RNAlibs3-2016-03-29/Sample_29-RT-G-1/29-RT-G-1_GAGATTCC-AGGCGAAG_L003_R2_001.fastq.gz
RT_PC_1,/mnt/SeqData3/GenoSysFat/Rawdata/tissue_panels_2016,.,160504_D00132.B.Project_Sandve-RNAlibs3-2016-03-29/Sample_30-RT-PC-1/30-RT-PC-1_GAGATTCC-TAATCTTA_L002_R1_001.fastq.gz,160504_D00132.B.Project_Sandve-RNAlibs3-2016-03-29/Sample_30-RT-PC-1/30-RT-PC-1_GAGATTCC-TAATCTTA_L002_R2_001.fastq.gz,160504_D00132.B.Project_Sandve-RNAlibs3-2016-03-29/Sample_30-RT-PC-1/30-RT-PC-1_GAGATTCC-TAATCTTA_L003_R1_001.fastq.gz,160504_D00132.B.Project_Sandve-RNAlibs3-2016-03-29/Sample_30-RT-PC-1/30-RT-PC-1_GAGATTCC-TAATCTTA_L003_R2_001.fastq.gz,160524_D00132.A.Project_Sandve-RNAlibs3-2016-03-29/Sample_30-RT-PC-1/30-RT-PC-1_GAGATTCC-TAATCTTA_L003_R1_001.fastq.gz,160524_D00132.A.Project_Sandve-RNAlibs3-2016-03-29/Sample_30-RT-PC-1/30-RT-PC-1_GAGATTCC-TAATCTTA_L003_R2_001.fastq.gz
RT_K_1,/mnt/SeqData3/GenoSysFat/Rawdata/tissue_panels_2016,.,160504_D00132.B.Project_Sandve-RNAlibs3-2016-03-29/Sample_31-RT-K-1/31-RT-K-1_GAGATTCC-CAGGACGT_L002_R1_001.fastq.gz,160504_D00132.B.Project_Sandve-RNAlibs3-2016-03-29/Sample_31-RT-K-1/31-RT-K-1_GAGATTCC-CAGGACGT_L002_R2_001.fastq.gz,160504_D00132.B.Project_Sandve-RNAlibs3-2016-03-29/Sample_31-RT-K-1/31-RT-K-1_GAGATTCC-CAGGACGT_L003_R1_001.fastq.gz,160504_D00132.B.Project_Sandve-RNAlibs3-2016-03-29/Sample_31-RT-K-1/31-RT-K-1_GAGATTCC-CAGGACGT_L003_R2_001.fastq.gz,160524_D00132.A.Project_Sandve-RNAlibs3-2016-03-29/Sample_31-RT-K-1/31-RT-K-1_GAGATTCC-CAGGACGT_L003_R1_001.fastq.gz,160524_D00132.A.Project_Sandve-RNAlibs3-2016-03-29/Sample_31-RT-K-1/31-RT-K-1_GAGATTCC-CAGGACGT_L003_R2_001.fastq.gz
RT_HK_1,/mnt/SeqData3/GenoSysFat/Rawdata/tissue_panels_2016,.,160504_D00132.B.Project_Sandve-RNAlibs3-2016-03-29/Sample_32-RT-HK-1/32-RT-HK-1_GAGATTCC-GTACTGAC_L002_R1_001.fastq.gz,160504_D00132.B.Project_Sandve-RNAlibs3-2016-03-29/Sample_32-RT-HK-1/32-RT-HK-1_GAGATTCC-GTACTGAC_L002_R2_001.fastq.gz,160504_D00132.B.Project_Sandve-RNAlibs3-2016-03-29/Sample_32-RT-HK-1/32-RT-HK-1_GAGATTCC-GTACTGAC_L003_R1_001.fastq.gz,160504_D00132.B.Project_Sandve-RNAlibs3-2016-03-29/Sample_32-RT-HK-1/32-RT-HK-1_GAGATTCC-GTACTGAC_L003_R2_001.fastq.gz,160524_D00132.A.Project_Sandve-RNAlibs3-2016-03-29/Sample_32-RT-HK-1/32-RT-HK-1_GAGATTCC-GTACTGAC_L003_R1_001.fastq.gz,160524_D00132.A.Project_Sandve-RNAlibs3-2016-03-29/Sample_32-RT-HK-1/32-RT-HK-1_GAGATTCC-GTACTGAC_L003_R2_001.fastq.gz
RT_Sp_1,/mnt/SeqData3/GenoSysFat/Rawdata/tissue_panels_2016,.,160504_D00132.B.Project_Sandve-RNAlibs3-2016-03-29/Sample_33-RT-Sp-1/33-RT-Sp-1_ATTCAGAA-TATAGCCT_L002_R1_001.fastq.gz,160504_D00132.B.Project_Sandve-RNAlibs3-2016-03-29/Sample_33-RT-Sp-1/33-RT-Sp-1_ATTCAGAA-TATAGCCT_L002_R2_001.fastq.gz,160504_D00132.B.Project_Sandve-RNAlibs3-2016-03-29/Sample_33-RT-Sp-1/33-RT-Sp-1_ATTCAGAA-TATAGCCT_L003_R1_001.fastq.gz,160504_D00132.B.Project_Sandve-RNAlibs3-2016-03-29/Sample_33-RT-Sp-1/33-RT-Sp-1_ATTCAGAA-TATAGCCT_L003_R2_001.fastq.gz,160524_D00132.A.Project_Sandve-RNAlibs3-2016-03-29/Sample_33-RT-Sp-1/33-RT-Sp-1_ATTCAGAA-TATAGCCT_L003_R1_001.fastq.gz,160524_D00132.A.Project_Sandve-RNAlibs3-2016-03-29/Sample_33-RT-Sp-1/33-RT-Sp-1_ATTCAGAA-TATAGCCT_L003_R2_001.fastq.gz
RT_Gi_1,/mnt/SeqData3/GenoSysFat/Rawdata/tissue_panels_2016,.,160504_D00132.B.Project_Sandve-RNAlibs3-2016-03-29/Sample_34-RT-Gi-1/34-RT-Gi-1_ATTCAGAA-CCTATCCT_L002_R1_001.fastq.gz,160504_D00132.B.Project_Sandve-RNAlibs3-2016-03-29/Sample_34-RT-Gi-1/34-RT-Gi-1_ATTCAGAA-CCTATCCT_L002_R2_001.fastq.gz,160504_D00132.B.Project_Sandve-RNAlibs3-2016-03-29/Sample_34-RT-Gi-1/34-RT-Gi-1_ATTCAGAA-CCTATCCT_L003_R1_001.fastq.gz,160504_D00132.B.Project_Sandve-RNAlibs3-2016-03-29/Sample_34-RT-Gi-1/34-RT-Gi-1_ATTCAGAA-CCTATCCT_L003_R2_001.fastq.gz,160524_D00132.A.Project_Sandve-RNAlibs3-2016-03-29/Sample_34-RT-Gi-1/34-RT-Gi-1_ATTCAGAA-CCTATCCT_L003_R1_001.fastq.gz,160524_D00132.A.Project_Sandve-RNAlibs3-2016-03-29/Sample_34-RT-Gi-1/34-RT-Gi-1_ATTCAGAA-CCTATCCT_L003_R2_001.fastq.gz
RT_E_1,/mnt/SeqData3/GenoSysFat/Rawdata/tissue_panels_2016,.,160504_D00132.B.Project_Sandve-RNAlibs3-2016-03-29/Sample_35-RT-E-1/35-RT-E-1_ATTCAGAA-GGCTCTGA_L002_R1_001.fastq.gz,160504_D00132.B.Project_Sandve-RNAlibs3-2016-03-29/Sample_35-RT-E-1/35-RT-E-1_ATTCAGAA-GGCTCTGA_L002_R2_001.fastq.gz,160504_D00132.B.Project_Sandve-RNAlibs3-2016-03-29/Sample_35-RT-E-1/35-RT-E-1_ATTCAGAA-GGCTCTGA_L003_R1_001.fastq.gz,160504_D00132.B.Project_Sandve-RNAlibs3-2016-03-29/Sample_35-RT-E-1/35-RT-E-1_ATTCAGAA-GGCTCTGA_L003_R2_001.fastq.gz,160524_D00132.A.Project_Sandve-RNAlibs3-2016-03-29/Sample_35-RT-E-1/35-RT-E-1_ATTCAGAA-GGCTCTGA_L003_R1_001.fastq.gz,160524_D00132.A.Project_Sandve-RNAlibs3-2016-03-29/Sample_35-RT-E-1/35-RT-E-1_ATTCAGAA-GGCTCTGA_L003_R2_001.fastq.gz
RT_B_1,/mnt/SeqData3/GenoSysFat/Rawdata/tissue_panels_2016,.,160504_D00132.B.Project_Sandve-RNAlibs3-2016-03-29/Sample_36-RT-B-1/36-RT-B-1_ATTCAGAA-AGGCGAAG_L002_R1_001.fastq.gz,160504_D00132.B.Project_Sandve-RNAlibs3-2016-03-29/Sample_36-RT-B-1/36-RT-B-1_ATTCAGAA-AGGCGAAG_L002_R2_001.fastq.gz,160504_D00132.B.Project_Sandve-RNAlibs3-2016-03-29/Sample_36-RT-B-1/36-RT-B-1_ATTCAGAA-AGGCGAAG_L003_R1_001.fastq.gz,160504_D00132.B.Project_Sandve-RNAlibs3-2016-03-29/Sample_36-RT-B-1/36-RT-B-1_ATTCAGAA-AGGCGAAG_L003_R2_001.fastq.gz,160524_D00132.A.Project_Sandve-RNAlibs3-2016-03-29/Sample_36-RT-B-1/36-RT-B-1_ATTCAGAA-AGGCGAAG_L003_R1_001.fastq.gz,160524_D00132.A.Project_Sandve-RNAlibs3-2016-03-29/Sample_36-RT-B-1/36-RT-B-1_ATTCAGAA-AGGCGAAG_L003_R2_001.fastq.gz
